,actual_value,result,target_log,target_drawing,target_interpolation,name,batch,feature,location,parent_id,interp_value,deviation,measurement_deviation,classification
0,22.0135,True,22.0,22.0,22.0,1525,10,A,4.0,957874d9-d233-41ed-8b78-2303ddec74c1,22.01,0.010000000000001563,-0.0034999999999989484,True
1,22.0165,True,22.0,22.0,22.0,1495,10,A,4.0,53af360d-f772-40b1-b4d8-97b66fa7b63f,22.02,0.019999999999999574,0.0034999999999989484,True
2,22.0138,True,22.0,22.0,22.0,1555,10,A,4.0,40cfa885-c274-4e20-87a2-cfe1b68ebf78,22.02,0.019999999999999574,0.006199999999999761,True
3,22.0152,True,22.0,22.0,22.0,1465,10,A,4.0,19b8a1cf-5753-4bfb-9d2e-529802e426b0,22.01,0.010000000000001563,-0.005199999999998539,True
4,22.0132,True,22.0,22.0,22.0,1411,10,A,4.0,8a471e6c-1ff4-4f00-8012-beec8c53ae8a,22.02,0.019999999999999574,0.006799999999998363,True
5,22.0206,True,22.0,22.0,22.0,56,7,A,4.0,be48090f-5fe8-439b-b200-3ddb76b44fc2,22.02,0.019999999999999574,-0.0006000000000021544,True
6,22.0238,True,22.0,22.0,22.0,316,7,A,4.0,366ace20-ff87-4d6a-ac89-2f73321ee794,22.03,0.030000000000001137,0.006199999999999761,True
7,22.02,True,22.0,22.0,22.0,87,7,A,4.0,576692a2-749a-472c-8933-b6513a5e0d25,22.03,0.030000000000001137,0.010000000000001563,True
8,22.0247,True,22.0,22.0,22.0,3,7,A,4.0,92f1622b-f6c5-4025-ad12-2a5dfb86912e,22.02,0.019999999999999574,-0.004699999999999704,True
9,22.025,True,22.0,22.0,22.0,278,7,A,4.0,e96864ce-81d4-4f87-8fd3-a1a4c746e8cc,22.03,0.030000000000001137,0.005000000000002558,True
10,22.0199,True,22.0,22.0,22.0,120,7,A,4.0,52852e1c-7052-410c-9813-08a109900b32,22.025,0.02499999999999858,0.005099999999998772,True
11,22.0216,True,22.0,22.0,22.0,149,7,A,4.0,d3bcbf36-90e5-40a1-8c06-43d38b8341bb,22.03,0.030000000000001137,0.00840000000000174,True
12,22.0207,True,22.0,22.0,22.0,213,7,A,4.0,011c2ecc-b97e-4ef0-9067-e189aaaa01d4,22.03,0.030000000000001137,0.009299999999999642,True
13,22.0197,True,22.0,22.0,22.0,340,7,A,4.0,3f68da66-be30-4c4d-afb2-afc627ab73a4,22.03,0.030000000000001137,0.010300000000000864,True
14,22.0223,True,22.0,22.0,22.0,27,7,A,4.0,f9838fc0-6c08-4923-bd1d-bcb53fd61e25,22.03,0.030000000000001137,0.007699999999999818,True
15,22.0133,True,22.0,22.0,22.0,183,7,A,4.0,2f1932fa-df49-4ce5-8afe-1bfbcd94f6ff,22.025,0.02499999999999858,0.011699999999997601,True
16,22.0191,True,22.0,22.0,22.0,246,7,A,4.0,04a25a68-7e23-47b3-bafd-c904b058cee8,22.03,0.030000000000001137,0.010899999999999466,True
17,22.0179,True,22.0,22.0,22.0,515,8,A,4.0,3552bcab-5183-4c41-8c2b-cfe4f8ee3a88,22.03,0.030000000000001137,0.012100000000000222,True
18,22.0171,True,22.0,22.0,22.0,689,8,A,4.0,371557a9-e87d-4028-a9cc-f5a329e02586,22.03,0.030000000000001137,0.01290000000000191,True
19,22.0185,True,22.0,22.0,22.0,486,8,A,4.0,c83b3d54-e4e7-413f-bb18-5838550af94c,22.03,0.030000000000001137,0.01150000000000162,True
20,22.0233,True,22.0,22.0,22.0,602,8,A,4.0,b34c4b85-c219-4c46-8377-b6490cb0e3cd,22.03,0.030000000000001137,0.006700000000002149,True
21,22.0155,True,22.0,22.0,22.0,776,8,A,4.0,79311a5e-22b3-4742-8e3e-702a476e6628,22.02,0.019999999999999574,0.0045000000000001705,True
22,22.0203,True,22.0,22.0,22.0,428,8,A,4.0,dc2448d2-87c1-4223-8b7c-7f1b9815ba59,22.03,0.030000000000001137,0.009700000000002262,True
23,22.0265,True,22.0,22.0,22.0,375,8,A,4.0,148bd2ea-ea87-4311-bb41-ae7167891749,22.02,0.019999999999999574,-0.006499999999999062,True
24,22.0129,True,22.0,22.0,22.0,631,8,A,4.0,73c4cdc5-0f4d-4c8b-9a95-61d6ab63f01d,22.03,0.030000000000001137,0.01710000000000278,True
25,22.0198,True,22.0,22.0,22.0,660,8,A,4.0,0b029562-e4c4-469b-b370-3bf6712a8c1c,22.03,0.030000000000001137,0.010200000000001097,True
26,22.0208,True,22.0,22.0,22.0,718,8,A,4.0,e9b72b04-1a8b-4f81-a2dd-2925aecf929c,22.03,0.030000000000001137,0.009199999999999875,True
27,22.0171,True,22.0,22.0,22.0,810,8,A,4.0,dab0a9f0-9a94-4a2f-ba58-7f727e4c568f,22.04,0.03999999999999915,0.02289999999999992,True
28,22.0198,True,22.0,22.0,22.0,457,8,A,4.0,d97e484d-2300-4c39-b610-65ebae5ab6fa,22.03,0.030000000000001137,0.010200000000001097,True
29,22.0136,True,22.0,22.0,22.0,839,8,A,4.0,ed788987-b1a0-4103-b3d0-3765dc64cd03,22.02,0.019999999999999574,0.006399999999999295,True
30,22.0224,True,22.0,22.0,22.0,573,8,A,4.0,c3ee557f-3c5b-4f69-a005-b8b03be647bc,22.04,0.03999999999999915,0.01759999999999806,True
31,22.025,True,22.0,22.0,22.0,399,8,A,4.0,cee4648c-174c-4317-aaf9-3e30920d3e29,22.03,0.030000000000001137,0.005000000000002558,True
32,22.0233,True,22.0,22.0,22.0,544,8,A,4.0,dd730999-f518-4a3e-8582-31b3e9b19c11,22.03,0.030000000000001137,0.006700000000002149,True
33,22.022,True,22.0,22.0,22.0,1038,9,A,4.0,faea7075-cc15-41b9-94c1-bb3a45c4f298,22.03,0.030000000000001137,0.008000000000002672,True
34,22.0201,True,22.0,22.0,22.0,869,9,A,4.0,18e9c503-9102-4efc-977e-d70a2952d885,22.03,0.030000000000001137,0.009900000000001796,True
35,22.0184,True,22.0,22.0,22.0,1183,9,A,4.0,de6261d9-169a-4b6c-a464-267615e094fc,22.03,0.030000000000001137,0.011600000000001387,True
36,22.0244,True,22.0,22.0,22.0,1067,9,A,4.0,645b6edf-8c6b-405d-98c0-8225ddc9d3f4,22.03,0.030000000000001137,0.00560000000000116,True
37,22.0196,True,22.0,22.0,22.0,1270,9,A,4.0,f0cdaabc-61d2-4601-ab2e-759a18abaabc,22.03,0.030000000000001137,0.010400000000000631,True
38,22.0231,True,22.0,22.0,22.0,1304,9,A,4.0,b60c6ff0-8eb4-436c-be2b-b925dfcce87b,22.02,0.019999999999999574,-0.0030999999999998806,True
39,22.0217,True,22.0,22.0,22.0,1009,9,A,4.0,3521d752-1289-43ba-8262-9326fe6a37a1,22.03,0.030000000000001137,0.008300000000001972,True
40,22.0237,True,22.0,22.0,22.0,1125,9,A,4.0,9d24f4fd-92fe-4003-9b74-5e720fa49e8e,22.03,0.030000000000001137,0.006299999999999528,True
41,22.0154,True,22.0,22.0,22.0,951,9,A,4.0,ce67919e-e686-4108-93f7-6147f377f3e0,22.05,0.05000000000000071,0.034600000000001074,True
42,22.0191,True,22.0,22.0,22.0,1154,9,A,4.0,3a1bc776-fa11-419c-bc8e-3dcccd11f654,22.026666666666667,0.026666666666667282,0.007566666666665611,True
43,22.0186,True,22.0,22.0,22.0,1212,9,A,4.0,61ac0d8f-487a-4f82-b93b-915b10160090,22.03,0.030000000000001137,0.011400000000001853,True
44,22.0235,True,22.0,22.0,22.0,1241,9,A,4.0,0c675113-e896-4652-b2ee-6e6748ff7e2d,22.02,0.019999999999999574,-0.0034999999999989484,True
45,22.0269,True,22.0,22.0,22.0,980,9,A,4.0,637aa24b-ce2c-4149-b832-914cefd40e6f,22.03,0.030000000000001137,0.0030999999999998806,True
46,21.9991,True,22.0,22.0,22.0,2414,11,A,4.0,bf8c2a59-2e8d-4068-812d-e33600a9b357,22.0,0.0,0.0009000000000014552,True
47,22.0068,True,22.0,22.0,22.0,2894,11,A,4.0,3f197f93-a1fa-4ab1-ab69-ca5268def52a,22.01,0.010000000000001563,0.0032000000000032003,True
48,21.9983,True,22.0,22.0,22.0,1840,11,A,4.0,0b5a01d1-3de8-415c-997f-a2916a503eac,22.0,0.0,0.0016999999999995907,True
49,22.0029,True,22.0,22.0,22.0,2084,11,A,4.0,e943bfee-4586-4805-912d-5b9bdd5a068a,22.0,0.0,-0.0029000000000003467,True
50,21.9922,True,22.0,22.0,22.0,1933,11,A,4.0,b791e80f-67e5-4dc1-a6bd-c4265372db88,22.01,0.010000000000001563,0.017800000000001148,True
51,22.0027,True,22.0,22.0,22.0,2210,11,A,4.0,fb9df42a-ee82-4e01-ac6f-55cb9980570b,22.0,0.0,-0.002700000000000813,True
52,22.0106,True,22.0,22.0,22.0,2780,11,A,4.0,ac2e24a5-9d04-4ef1-946c-c25aaf2f18f2,22.01,0.010000000000001563,-0.0005999999999986017,True
53,22.0065,True,22.0,22.0,22.0,3014,11,A,4.0,055b372f-f762-47c5-941a-2cb00d7cda04,22.02,0.019999999999999574,0.013500000000000512,True
54,22.0091,True,22.0,22.0,22.0,2024,11,A,4.0,beedcfd6-bdf5-4a34-9cda-b1604465b540,22.0,0.0,-0.009100000000000108,True
55,21.9997,True,22.0,22.0,22.0,2684,11,A,4.0,c3233d49-87e1-4d23-9818-f06344cd1db6,21.99,-0.010000000000001563,-0.009700000000002262,True
56,22.0036,True,22.0,22.0,22.0,1963,11,A,4.0,7113d034-a8a8-4232-b77f-3b2eaf846b60,22.0,0.0,-0.0035999999999987153,True
57,22.006,True,22.0,22.0,22.0,2474,11,A,4.0,14da21ff-152c-4abc-bf3d-046d4bf5d75e,22.01,0.010000000000001563,0.004000000000001336,True
58,22.0035,True,22.0,22.0,22.0,1870,11,A,4.0,0dc0adb5-4dc2-4005-9f1f-8b8bd1f57abb,22.0,0.0,-0.0034999999999989484,True
59,21.9964,True,22.0,22.0,22.0,2054,11,A,4.0,d12551f7-ceb0-4845-880b-f15fca1b61d0,21.99,-0.010000000000001563,-0.006400000000002848,True
60,22.0064,True,22.0,22.0,22.0,1900,11,A,4.0,594ead1b-ac0d-4325-a117-65e133bd8532,22.0,0.0,-0.006399999999999295,True
61,22.0045,True,22.0,22.0,22.0,2150,11,A,4.0,ed18384f-332f-48a7-9fd8-3baa0a65961e,22.01,0.010000000000001563,0.005500000000001393,True
62,22.0038,True,22.0,22.0,22.0,2174,11,A,4.0,dcc88c0c-dbcd-4535-9f74-fc328ceb81bc,22.0,0.0,-0.0037999999999982492,True
63,22.0044,True,22.0,22.0,22.0,2955,11,A,4.0,1783b20a-f98f-4523-a3f7-0a94ea9849ed,22.01,0.010000000000001563,0.00560000000000116,True
64,22.0042,True,22.0,22.0,22.0,1696,11,A,4.0,abe3cd58-9746-4c59-9990-3b9b2b004d74,22.0,0.0,-0.00420000000000087,True
65,22.0089,True,22.0,22.0,22.0,2504,11,A,4.0,dd5ec703-3175-47ac-94a6-01d45b452ede,22.01,0.010000000000001563,0.001100000000000989,True
66,22.002,True,22.0,22.0,22.0,2594,11,A,4.0,ba7f6542-3315-40ba-9a79-b5589f9cf315,22.02,0.019999999999999574,0.018000000000000682,True
67,21.998,True,22.0,22.0,22.0,1810,11,A,4.0,d8ca34de-63e8-418e-822d-8ba8e053f9e8,22.0,0.0,0.0019999999999988916,True
68,21.9973,True,22.0,22.0,22.0,1994,11,A,4.0,8c00b080-a571-483c-83c5-0e6252bec595,22.0,0.0,0.002700000000000813,True
69,22.0019,True,22.0,22.0,22.0,2444,11,A,4.0,9e1d80f2-7b5c-4eb7-9bcc-b741480f7c42,22.0,0.0,-0.0018999999999991246,True
70,21.9935,True,22.0,22.0,22.0,2240,11,A,4.0,5db73712-5634-4546-8ca1-665d02710425,22.0,0.0,0.006499999999999062,True
71,22.0104,True,22.0,22.0,22.0,2864,11,A,4.0,73c14f4e-1bdb-4df7-b14a-62a63dba2bac,22.01,0.010000000000001563,-0.00039999999999906777,True
72,22.0056,True,22.0,22.0,22.0,2384,11,A,4.0,95998d43-ff5d-41fa-8fcc-19d8b97e6db9,22.01,0.010000000000001563,0.004400000000000404,True
73,21.9997,True,22.0,22.0,22.0,2264,11,A,4.0,08e72ec8-ecf6-4e89-802d-a2ba50f88646,22.01,0.010000000000001563,0.010300000000000864,True
74,21.9984,True,22.0,22.0,22.0,2294,11,A,4.0,3f5166b4-f772-4a9c-aac5-1f83e7c73561,22.005000000000003,0.005000000000002558,0.006600000000002382,True
75,22.0115,True,22.0,22.0,22.0,2714,11,A,4.0,92886526-f4a1-4912-8c9c-293bd9e39bf2,22.01,0.010000000000001563,-0.0015000000000000568,True
76,22.0119,True,22.0,22.0,22.0,2624,11,A,4.0,b44eb084-81e8-4309-8a96-e5fadd99f2b0,22.02,0.019999999999999574,0.008099999999998886,True
77,22.0086,True,22.0,22.0,22.0,2750,11,A,4.0,2617a858-14bf-4149-9501-e702742f3f73,22.01,0.010000000000001563,0.00140000000000029,True
78,22.0033,True,22.0,22.0,22.0,2114,11,A,4.0,ba1ef204-2427-48d3-a21d-c755a268bd91,22.01,0.010000000000001563,0.006700000000002149,True
79,22.004,True,22.0,22.0,22.0,1726,11,A,4.0,b1164c60-277b-4574-aa65-aaebf6212ae5,22.01,0.010000000000001563,0.006000000000000227,True
80,22.0157,True,22.0,22.0,22.0,2804,11,A,4.0,375f8a3d-e6bb-4fa2-ac0d-44f3be40ef03,22.01,0.010000000000001563,-0.005699999999997374,True
81,21.9977,True,22.0,22.0,22.0,2834,11,A,4.0,2f6f1fdd-0978-4bdc-88fe-2cfe4e19e3a7,22.01,0.010000000000001563,0.012300000000003308,True
82,18.7919,False,19.0,19.01,18.975373890991136,1525,10,B,10.0,957874d9-d233-41ed-8b78-2303ddec74c1,19.005000000000003,0.029626109008866308,0.21310000000000429,True
83,18.8059,False,19.0,19.01,18.975373890991136,1495,10,B,10.0,53af360d-f772-40b1-b4d8-97b66fa7b63f,19.005000000000003,0.029626109008866308,0.1991000000000014,True
84,18.833,False,19.0,19.01,18.975373890991136,1555,10,B,10.0,40cfa885-c274-4e20-87a2-cfe1b68ebf78,19.005000000000003,0.029626109008866308,0.17200000000000415,True
85,18.779,False,19.0,19.01,18.975373890991136,1465,10,B,10.0,19b8a1cf-5753-4bfb-9d2e-529802e426b0,19.005000000000003,0.029626109008866308,0.22600000000000264,True
86,18.842,False,19.0,19.01,18.975373890991136,1411,10,B,10.0,8a471e6c-1ff4-4f00-8012-beec8c53ae8a,19.005000000000003,0.029626109008866308,0.1630000000000038,True
87,18.9799,True,19.0,19.01,18.975373890991136,56,7,B,10.0,be48090f-5fe8-439b-b200-3ddb76b44fc2,19.005000000000003,0.029626109008866308,0.0251000000000019,True
88,19.0089,True,19.0,19.01,18.975373890991136,316,7,B,10.0,366ace20-ff87-4d6a-ac89-2f73321ee794,19.005000000000003,0.029626109008866308,-0.003899999999998016,True
89,18.9985,True,19.0,19.01,18.975373890991136,87,7,B,10.0,576692a2-749a-472c-8933-b6513a5e0d25,19.005000000000003,0.029626109008866308,0.006500000000002615,True
90,18.994,True,19.0,19.01,18.975373890991136,3,7,B,10.0,92f1622b-f6c5-4025-ad12-2a5dfb86912e,19.005000000000003,0.029626109008866308,0.011000000000002785,True
91,18.9895,True,19.0,19.01,18.975373890991136,278,7,B,10.0,e96864ce-81d4-4f87-8fd3-a1a4c746e8cc,19.005000000000003,0.029626109008866308,0.015500000000002956,True
92,18.9889,True,19.0,19.01,18.975373890991136,120,7,B,10.0,52852e1c-7052-410c-9813-08a109900b32,19.005000000000003,0.029626109008866308,0.016100000000001558,True
93,18.9693,True,19.0,19.01,18.975373890991136,149,7,B,10.0,d3bcbf36-90e5-40a1-8c06-43d38b8341bb,19.005000000000003,0.029626109008866308,0.03570000000000206,True
94,18.9896,True,19.0,19.01,18.975373890991136,213,7,B,10.0,011c2ecc-b97e-4ef0-9067-e189aaaa01d4,19.005000000000003,0.029626109008866308,0.015400000000003189,True
95,18.9958,True,19.0,19.01,18.975373890991136,340,7,B,10.0,3f68da66-be30-4c4d-afb2-afc627ab73a4,19.0,0.02462610900886375,0.00420000000000087,True
96,18.9866,True,19.0,19.01,18.975373890991136,27,7,B,10.0,f9838fc0-6c08-4923-bd1d-bcb53fd61e25,19.005000000000003,0.029626109008866308,0.018400000000003303,True
97,19.0015,True,19.0,19.01,18.975373890991136,183,7,B,10.0,2f1932fa-df49-4ce5-8afe-1bfbcd94f6ff,19.005000000000003,0.029626109008866308,0.003500000000002501,True
98,18.9953,True,19.0,19.01,18.975373890991136,246,7,B,10.0,04a25a68-7e23-47b3-bafd-c904b058cee8,19.005000000000003,0.029626109008866308,0.009700000000002262,True
99,18.9777,True,19.0,19.01,18.975373890991136,515,8,B,10.0,3552bcab-5183-4c41-8c2b-cfe4f8ee3a88,19.005000000000003,0.029626109008866308,0.027300000000003877,True
100,19.0016,True,19.0,19.01,18.975373890991136,689,8,B,10.0,371557a9-e87d-4028-a9cc-f5a329e02586,19.005000000000003,0.029626109008866308,0.003400000000002734,True
101,18.9953,True,19.0,19.01,18.975373890991136,486,8,B,10.0,c83b3d54-e4e7-413f-bb18-5838550af94c,19.005000000000003,0.029626109008866308,0.009700000000002262,True
102,19.0,True,19.0,19.01,18.975373890991136,602,8,B,10.0,b34c4b85-c219-4c46-8377-b6490cb0e3cd,19.005000000000003,0.029626109008866308,0.005000000000002558,True
103,19.0052,True,19.0,19.01,18.975373890991136,776,8,B,10.0,79311a5e-22b3-4742-8e3e-702a476e6628,19.005000000000003,0.029626109008866308,-0.00019999999999598117,True
104,18.9845,True,19.0,19.01,18.975373890991136,428,8,B,10.0,dc2448d2-87c1-4223-8b7c-7f1b9815ba59,19.005000000000003,0.029626109008866308,0.02050000000000196,True
105,18.9864,True,19.0,19.01,18.975373890991136,375,8,B,10.0,148bd2ea-ea87-4311-bb41-ae7167891749,19.0,0.02462610900886375,0.013600000000000279,True
106,18.9704,True,19.0,19.01,18.975373890991136,631,8,B,10.0,73c4cdc5-0f4d-4c8b-9a95-61d6ab63f01d,19.005000000000003,0.029626109008866308,0.034600000000001074,True
107,18.992,True,19.0,19.01,18.975373890991136,660,8,B,10.0,0b029562-e4c4-469b-b370-3bf6712a8c1c,19.005000000000003,0.029626109008866308,0.013000000000001677,True
108,18.9825,True,19.0,19.01,18.975373890991136,718,8,B,10.0,e9b72b04-1a8b-4f81-a2dd-2925aecf929c,19.005000000000003,0.029626109008866308,0.022500000000000853,True
109,18.9975,True,19.0,19.01,18.975373890991136,810,8,B,10.0,dab0a9f0-9a94-4a2f-ba58-7f727e4c568f,19.0,0.02462610900886375,0.002500000000001279,True
110,19.004,True,19.0,19.01,18.975373890991136,457,8,B,10.0,d97e484d-2300-4c39-b610-65ebae5ab6fa,19.005000000000003,0.029626109008866308,0.0010000000000012221,True
111,19.0121,True,19.0,19.01,18.975373890991136,839,8,B,10.0,ed788987-b1a0-4103-b3d0-3765dc64cd03,19.005000000000003,0.029626109008866308,-0.007099999999997664,True
112,18.9893,True,19.0,19.01,18.975373890991136,573,8,B,10.0,c3ee557f-3c5b-4f69-a005-b8b03be647bc,19.005000000000003,0.029626109008866308,0.01570000000000249,True
113,18.9974,True,19.0,19.01,18.975373890991136,399,8,B,10.0,cee4648c-174c-4317-aaf9-3e30920d3e29,19.005000000000003,0.029626109008866308,0.007600000000003604,True
114,19.0108,True,19.0,19.01,18.975373890991136,544,8,B,10.0,dd730999-f518-4a3e-8582-31b3e9b19c11,19.005000000000003,0.029626109008866308,-0.005799999999997141,True
115,19.0147,True,19.0,19.01,18.975373890991136,1038,9,B,10.0,faea7075-cc15-41b9-94c1-bb3a45c4f298,19.005000000000003,0.029626109008866308,-0.00969999999999871,True
116,19.0053,True,19.0,19.01,18.975373890991136,869,9,B,10.0,18e9c503-9102-4efc-977e-d70a2952d885,19.005000000000003,0.029626109008866308,-0.0002999999999957481,True
117,19.0009,True,19.0,19.01,18.975373890991136,1183,9,B,10.0,de6261d9-169a-4b6c-a464-267615e094fc,19.0,0.02462610900886375,-0.0009000000000014552,True
118,18.9908,True,19.0,19.01,18.975373890991136,1067,9,B,10.0,645b6edf-8c6b-405d-98c0-8225ddc9d3f4,19.005000000000003,0.029626109008866308,0.014200000000002433,True
119,19.0027,True,19.0,19.01,18.975373890991136,1270,9,B,10.0,f0cdaabc-61d2-4601-ab2e-759a18abaabc,19.0,0.02462610900886375,-0.002700000000000813,True
120,18.9959,True,19.0,19.01,18.975373890991136,1304,9,B,10.0,b60c6ff0-8eb4-436c-be2b-b925dfcce87b,19.0,0.02462610900886375,0.004100000000001103,True
121,18.9981,True,19.0,19.01,18.975373890991136,1009,9,B,10.0,3521d752-1289-43ba-8262-9326fe6a37a1,19.005000000000003,0.029626109008866308,0.0069000000000016826,True
122,19.0076,True,19.0,19.01,18.975373890991136,1125,9,B,10.0,9d24f4fd-92fe-4003-9b74-5e720fa49e8e,19.005000000000003,0.029626109008866308,-0.002599999999997493,True
123,19.0025,True,19.0,19.01,18.975373890991136,951,9,B,10.0,ce67919e-e686-4108-93f7-6147f377f3e0,19.005000000000003,0.029626109008866308,0.002500000000001279,True
124,19.0058,True,19.0,19.01,18.975373890991136,1154,9,B,10.0,3a1bc776-fa11-419c-bc8e-3dcccd11f654,19.005000000000003,0.029626109008866308,-0.0007999999999981355,True
125,18.9755,True,19.0,19.01,18.975373890991136,1212,9,B,10.0,61ac0d8f-487a-4f82-b93b-915b10160090,19.005000000000003,0.029626109008866308,0.029500000000002302,True
126,18.9983,True,19.0,19.01,18.975373890991136,1241,9,B,10.0,0c675113-e896-4652-b2ee-6e6748ff7e2d,19.0,0.02462610900886375,0.0016999999999995907,True
127,19.0056,True,19.0,19.01,18.975373890991136,980,9,B,10.0,637aa24b-ce2c-4149-b832-914cefd40e6f,19.0,0.02462610900886375,-0.00560000000000116,True
128,18.8235,False,19.0,19.01,18.975373890991136,2414,11,B,10.0,bf8c2a59-2e8d-4068-812d-e33600a9b357,19.005000000000003,0.029626109008866308,0.18150000000000333,True
129,18.7878,False,19.0,19.01,18.975373890991136,2894,11,B,10.0,3f197f93-a1fa-4ab1-ab69-ca5268def52a,19.0,0.02462610900886375,0.21219999999999928,True
130,18.7746,False,19.0,19.01,18.975373890991136,1840,11,B,10.0,0b5a01d1-3de8-415c-997f-a2916a503eac,19.0,0.02462610900886375,0.2254000000000005,True
131,18.7872,False,19.0,19.01,18.975373890991136,2084,11,B,10.0,e943bfee-4586-4805-912d-5b9bdd5a068a,19.005000000000003,0.029626109008866308,0.217800000000004,True
132,18.7954,False,19.0,19.01,18.975373890991136,1933,11,B,10.0,b791e80f-67e5-4dc1-a6bd-c4265372db88,19.005000000000003,0.029626109008866308,0.20960000000000178,True
133,18.8085,False,19.0,19.01,18.975373890991136,2210,11,B,10.0,fb9df42a-ee82-4e01-ac6f-55cb9980570b,19.0,0.02462610900886375,0.19150000000000134,True
134,18.8476,False,19.0,19.01,18.975373890991136,2780,11,B,10.0,ac2e24a5-9d04-4ef1-946c-c25aaf2f18f2,19.005000000000003,0.029626109008866308,0.15740000000000265,True
135,18.7938,False,19.0,19.01,18.975373890991136,3014,11,B,10.0,055b372f-f762-47c5-941a-2cb00d7cda04,19.005000000000003,0.029626109008866308,0.2112000000000016,True
136,18.8246,False,19.0,19.01,18.975373890991136,2024,11,B,10.0,beedcfd6-bdf5-4a34-9cda-b1604465b540,19.005000000000003,0.029626109008866308,0.18040000000000234,True
137,18.8212,False,19.0,19.01,18.975373890991136,2684,11,B,10.0,c3233d49-87e1-4d23-9818-f06344cd1db6,19.0,0.02462610900886375,0.17879999999999896,True
138,18.7839,False,19.0,19.01,18.975373890991136,1963,11,B,10.0,7113d034-a8a8-4232-b77f-3b2eaf846b60,19.005000000000003,0.029626109008866308,0.2211000000000034,True
139,18.8268,False,19.0,19.01,18.975373890991136,2474,11,B,10.0,14da21ff-152c-4abc-bf3d-046d4bf5d75e,19.005000000000003,0.029626109008866308,0.1782000000000039,True
140,18.8178,False,19.0,19.01,18.975373890991136,1870,11,B,10.0,0dc0adb5-4dc2-4005-9f1f-8b8bd1f57abb,19.005000000000003,0.029626109008866308,0.18720000000000425,True
141,18.8347,False,19.0,19.01,18.975373890991136,2054,11,B,10.0,d12551f7-ceb0-4845-880b-f15fca1b61d0,19.0,0.02462610900886375,0.16529999999999845,True
142,18.827,False,19.0,19.01,18.975373890991136,1900,11,B,10.0,594ead1b-ac0d-4325-a117-65e133bd8532,19.005000000000003,0.029626109008866308,0.17800000000000082,True
143,18.8036,False,19.0,19.01,18.975373890991136,2150,11,B,10.0,ed18384f-332f-48a7-9fd8-3baa0a65961e,19.005000000000003,0.029626109008866308,0.20140000000000313,True
144,18.8049,False,19.0,19.01,18.975373890991136,2174,11,B,10.0,dcc88c0c-dbcd-4535-9f74-fc328ceb81bc,19.005000000000003,0.029626109008866308,0.2001000000000026,True
145,18.8352,False,19.0,19.01,18.975373890991136,2955,11,B,10.0,1783b20a-f98f-4523-a3f7-0a94ea9849ed,19.005000000000003,0.029626109008866308,0.16980000000000217,True
146,18.8009,False,19.0,19.01,18.975373890991136,1696,11,B,10.0,abe3cd58-9746-4c59-9990-3b9b2b004d74,19.005000000000003,0.029626109008866308,0.20410000000000394,True
147,18.7884,False,19.0,19.01,18.975373890991136,2504,11,B,10.0,dd5ec703-3175-47ac-94a6-01d45b452ede,19.005000000000003,0.029626109008866308,0.21660000000000323,True
148,18.8384,False,19.0,19.01,18.975373890991136,2594,11,B,10.0,ba7f6542-3315-40ba-9a79-b5589f9cf315,19.0,0.02462610900886375,0.16159999999999997,True
149,18.8225,False,19.0,19.01,18.975373890991136,1810,11,B,10.0,d8ca34de-63e8-418e-822d-8ba8e053f9e8,19.0,0.02462610900886375,0.17749999999999844,True
150,18.7981,False,19.0,19.01,18.975373890991136,1994,11,B,10.0,8c00b080-a571-483c-83c5-0e6252bec595,19.005000000000003,0.029626109008866308,0.20690000000000097,True
151,18.7802,False,19.0,19.01,18.975373890991136,2444,11,B,10.0,9e1d80f2-7b5c-4eb7-9bcc-b741480f7c42,19.005000000000003,0.029626109008866308,0.2248000000000019,True
152,18.7973,False,19.0,19.01,18.975373890991136,2240,11,B,10.0,5db73712-5634-4546-8ca1-665d02710425,19.0,0.02462610900886375,0.2027000000000001,True
153,18.8217,False,19.0,19.01,18.975373890991136,2864,11,B,10.0,73c14f4e-1bdb-4df7-b14a-62a63dba2bac,19.005000000000003,0.029626109008866308,0.18330000000000268,True
154,18.8383,False,19.0,19.01,18.975373890991136,2384,11,B,10.0,95998d43-ff5d-41fa-8fcc-19d8b97e6db9,19.005000000000003,0.029626109008866308,0.1667000000000023,True
155,18.777,False,19.0,19.01,18.975373890991136,2264,11,B,10.0,08e72ec8-ecf6-4e89-802d-a2ba50f88646,19.005000000000003,0.029626109008866308,0.22800000000000153,True
156,18.8185,False,19.0,19.01,18.975373890991136,2294,11,B,10.0,3f5166b4-f772-4a9c-aac5-1f83e7c73561,19.005000000000003,0.029626109008866308,0.18650000000000233,True
157,18.8019,False,19.0,19.01,18.975373890991136,2714,11,B,10.0,92886526-f4a1-4912-8c9c-293bd9e39bf2,19.0,0.02462610900886375,0.19810000000000016,True
158,18.8155,False,19.0,19.01,18.975373890991136,2624,11,B,10.0,b44eb084-81e8-4309-8a96-e5fadd99f2b0,19.0,0.02462610900886375,0.1844999999999999,True
159,18.8302,False,19.0,19.01,18.975373890991136,2750,11,B,10.0,2617a858-14bf-4149-9501-e702742f3f73,19.005000000000003,0.029626109008866308,0.17480000000000118,True
160,18.8055,False,19.0,19.01,18.975373890991136,2114,11,B,10.0,ba1ef204-2427-48d3-a21d-c755a268bd91,19.005000000000003,0.029626109008866308,0.199500000000004,True
161,18.8431,False,19.0,19.01,18.975373890991136,1726,11,B,10.0,b1164c60-277b-4574-aa65-aaebf6212ae5,19.0,0.02462610900886375,0.15690000000000026,True
162,18.8239,False,19.0,19.01,18.975373890991136,2804,11,B,10.0,375f8a3d-e6bb-4fa2-ac0d-44f3be40ef03,19.005000000000003,0.029626109008866308,0.18110000000000426,True
163,18.8246,False,19.0,19.01,18.975373890991136,2834,11,B,10.0,2f6f1fdd-0978-4bdc-88fe-2cfe4e19e3a7,19.005000000000003,0.029626109008866308,0.18040000000000234,True
164,17.9784,True,18.0,18.0,18.000000930247417,1525,10,C,15.0,957874d9-d233-41ed-8b78-2303ddec74c1,18.0,-9.302474168748631e-07,0.021599999999999397,True
165,17.985,True,18.0,18.0,18.000000930247417,1495,10,C,15.0,53af360d-f772-40b1-b4d8-97b66fa7b63f,18.0,-9.302474168748631e-07,0.015000000000000568,True
166,17.9802,True,18.0,18.0,18.000000930247417,1555,10,C,15.0,40cfa885-c274-4e20-87a2-cfe1b68ebf78,18.01,0.009999069752584688,0.029800000000001603,True
167,17.9807,True,18.0,18.0,18.000000930247417,1465,10,C,15.0,19b8a1cf-5753-4bfb-9d2e-529802e426b0,18.0,-9.302474168748631e-07,0.019300000000001205,True
168,17.9712,True,18.0,18.0,18.000000930247417,1411,10,C,15.0,8a471e6c-1ff4-4f00-8012-beec8c53ae8a,18.01,0.009999069752584688,0.038800000000001944,True
169,17.9715,True,18.0,18.0,18.000000930247417,56,7,C,15.0,be48090f-5fe8-439b-b200-3ddb76b44fc2,18.03,0.029999069752584262,0.05850000000000222,True
170,17.9799,True,18.0,18.0,18.000000930247417,316,7,C,15.0,366ace20-ff87-4d6a-ac89-2f73321ee794,18.02,0.0199990697525827,0.040099999999998914,True
171,17.9764,True,18.0,18.0,18.000000930247417,87,7,C,15.0,576692a2-749a-472c-8933-b6513a5e0d25,18.04,0.03999906975258227,0.06359999999999744,True
172,17.9795,True,18.0,18.0,18.000000930247417,3,7,C,15.0,92f1622b-f6c5-4025-ad12-2a5dfb86912e,18.04,0.03999906975258227,0.060499999999997556,True
173,17.9773,True,18.0,18.0,18.000000930247417,278,7,C,15.0,e96864ce-81d4-4f87-8fd3-a1a4c746e8cc,18.02,0.0199990697525827,0.04269999999999996,True
174,17.9801,True,18.0,18.0,18.000000930247417,120,7,C,15.0,52852e1c-7052-410c-9813-08a109900b32,18.02,0.0199990697525827,0.03989999999999938,True
175,17.9822,True,18.0,18.0,18.000000930247417,149,7,C,15.0,d3bcbf36-90e5-40a1-8c06-43d38b8341bb,18.02,0.0199990697525827,0.03780000000000072,True
176,17.9805,True,18.0,18.0,18.000000930247417,213,7,C,15.0,011c2ecc-b97e-4ef0-9067-e189aaaa01d4,18.02,0.0199990697525827,0.03950000000000031,True
177,17.98,True,18.0,18.0,18.000000930247417,340,7,C,15.0,3f68da66-be30-4c4d-afb2-afc627ab73a4,18.02,0.0199990697525827,0.03999999999999915,True
178,17.9819,True,18.0,18.0,18.000000930247417,27,7,C,15.0,f9838fc0-6c08-4923-bd1d-bcb53fd61e25,18.02,0.0199990697525827,0.03810000000000002,True
179,17.9798,True,18.0,18.0,18.000000930247417,183,7,C,15.0,2f1932fa-df49-4ce5-8afe-1bfbcd94f6ff,18.02,0.0199990697525827,0.04019999999999868,True
180,17.9743,True,18.0,18.0,18.000000930247417,246,7,C,15.0,04a25a68-7e23-47b3-bafd-c904b058cee8,18.03,0.029999069752584262,0.05570000000000164,True
181,17.9802,True,18.0,18.0,18.000000930247417,515,8,C,15.0,3552bcab-5183-4c41-8c2b-cfe4f8ee3a88,18.02,0.0199990697525827,0.03979999999999961,True
182,17.9736,True,18.0,18.0,18.000000930247417,689,8,C,15.0,371557a9-e87d-4028-a9cc-f5a329e02586,18.02,0.0199990697525827,0.04639999999999844,True
183,17.9756,True,18.0,18.0,18.000000930247417,486,8,C,15.0,c83b3d54-e4e7-413f-bb18-5838550af94c,18.02,0.0199990697525827,0.04439999999999955,True
184,17.9766,True,18.0,18.0,18.000000930247417,602,8,C,15.0,b34c4b85-c219-4c46-8377-b6490cb0e3cd,18.02,0.0199990697525827,0.04339999999999833,True
185,17.9838,True,18.0,18.0,18.000000930247417,776,8,C,15.0,79311a5e-22b3-4742-8e3e-702a476e6628,18.02,0.0199990697525827,0.0362000000000009,True
186,17.9797,True,18.0,18.0,18.000000930247417,428,8,C,15.0,dc2448d2-87c1-4223-8b7c-7f1b9815ba59,18.02,0.0199990697525827,0.04029999999999845,True
187,17.9812,True,18.0,18.0,18.000000930247417,375,8,C,15.0,148bd2ea-ea87-4311-bb41-ae7167891749,18.04,0.03999906975258227,0.058799999999997965,True
188,17.9529,True,18.0,18.0,18.000000930247417,631,8,C,15.0,73c4cdc5-0f4d-4c8b-9a95-61d6ab63f01d,18.02,0.0199990697525827,0.06709999999999994,True
189,17.976,True,18.0,18.0,18.000000930247417,660,8,C,15.0,0b029562-e4c4-469b-b370-3bf6712a8c1c,18.03,0.029999069752584262,0.054000000000002046,True
190,17.9807,True,18.0,18.0,18.000000930247417,718,8,C,15.0,e9b72b04-1a8b-4f81-a2dd-2925aecf929c,18.01,0.009999069752584688,0.02930000000000277,True
191,17.9746,True,18.0,18.0,18.000000930247417,810,8,C,15.0,dab0a9f0-9a94-4a2f-ba58-7f727e4c568f,18.03,0.029999069752584262,0.055400000000002336,True
192,17.9828,True,18.0,18.0,18.000000930247417,457,8,C,15.0,d97e484d-2300-4c39-b610-65ebae5ab6fa,18.02,0.0199990697525827,0.03719999999999857,True
193,17.9797,True,18.0,18.0,18.000000930247417,839,8,C,15.0,ed788987-b1a0-4103-b3d0-3765dc64cd03,18.03,0.029999069752584262,0.05030000000000001,True
194,17.9794,True,18.0,18.0,18.000000930247417,573,8,C,15.0,c3ee557f-3c5b-4f69-a005-b8b03be647bc,18.02,0.0199990697525827,0.0406000000000013,True
195,17.9824,True,18.0,18.0,18.000000930247417,399,8,C,15.0,cee4648c-174c-4317-aaf9-3e30920d3e29,18.04,0.03999906975258227,0.05760000000000076,True
196,17.981,True,18.0,18.0,18.000000930247417,544,8,C,15.0,dd730999-f518-4a3e-8582-31b3e9b19c11,18.02,0.0199990697525827,0.038999999999997925,True
197,17.9756,True,18.0,18.0,18.000000930247417,1038,9,C,15.0,faea7075-cc15-41b9-94c1-bb3a45c4f298,18.02,0.0199990697525827,0.04439999999999955,True
198,17.9853,True,18.0,18.0,18.000000930247417,869,9,C,15.0,18e9c503-9102-4efc-977e-d70a2952d885,18.03,0.029999069752584262,0.044700000000002404,True
199,17.9821,True,18.0,18.0,18.000000930247417,1183,9,C,15.0,de6261d9-169a-4b6c-a464-267615e094fc,18.02,0.0199990697525827,0.03790000000000049,True
200,17.9792,True,18.0,18.0,18.000000930247417,1067,9,C,15.0,645b6edf-8c6b-405d-98c0-8225ddc9d3f4,18.02,0.0199990697525827,0.040800000000000836,True
201,17.9754,True,18.0,18.0,18.000000930247417,1270,9,C,15.0,f0cdaabc-61d2-4601-ab2e-759a18abaabc,18.03,0.029999069752584262,0.05460000000000065,True
202,17.9845,True,18.0,18.0,18.000000930247417,1304,9,C,15.0,b60c6ff0-8eb4-436c-be2b-b925dfcce87b,18.04,0.03999906975258227,0.05549999999999855,True
203,17.9858,True,18.0,18.0,18.000000930247417,1009,9,C,15.0,3521d752-1289-43ba-8262-9326fe6a37a1,18.02,0.0199990697525827,0.034199999999998454,True
204,17.9781,True,18.0,18.0,18.000000930247417,1125,9,C,15.0,9d24f4fd-92fe-4003-9b74-5e720fa49e8e,18.02,0.0199990697525827,0.04189999999999827,True
205,17.9781,True,18.0,18.0,18.000000930247417,951,9,C,15.0,ce67919e-e686-4108-93f7-6147f377f3e0,18.02,0.0199990697525827,0.04189999999999827,True
206,17.9775,True,18.0,18.0,18.000000930247417,1154,9,C,15.0,3a1bc776-fa11-419c-bc8e-3dcccd11f654,18.02,0.0199990697525827,0.042500000000000426,True
207,17.974,True,18.0,18.0,18.000000930247417,1212,9,C,15.0,61ac0d8f-487a-4f82-b93b-915b10160090,18.02,0.0199990697525827,0.045999999999999375,True
208,17.9817,True,18.0,18.0,18.000000930247417,1241,9,C,15.0,0c675113-e896-4652-b2ee-6e6748ff7e2d,18.02,0.0199990697525827,0.03829999999999956,True
209,17.9816,True,18.0,18.0,18.000000930247417,980,9,C,15.0,637aa24b-ce2c-4149-b832-914cefd40e6f,18.02,0.0199990697525827,0.038399999999999324,True
210,17.9685,True,18.0,18.0,18.000000930247417,2414,11,C,15.0,bf8c2a59-2e8d-4068-812d-e33600a9b357,18.0,-9.302474168748631e-07,0.031500000000001194,True
211,17.9708,True,18.0,18.0,18.000000930247417,2894,11,C,15.0,3f197f93-a1fa-4ab1-ab69-ca5268def52a,18.01,0.009999069752584688,0.03920000000000101,True
212,17.9624,True,18.0,18.0,18.000000930247417,1840,11,C,15.0,0b5a01d1-3de8-415c-997f-a2916a503eac,18.02,0.0199990697525827,0.05760000000000076,True
213,17.9692,True,18.0,18.0,18.000000930247417,2084,11,C,15.0,e943bfee-4586-4805-912d-5b9bdd5a068a,18.0,-9.302474168748631e-07,0.030799999999999272,True
214,17.9565,True,18.0,18.0,18.000000930247417,1933,11,C,15.0,b791e80f-67e5-4dc1-a6bd-c4265372db88,17.99,-0.010000930247418438,0.033500000000000085,True
215,17.9661,True,18.0,18.0,18.000000930247417,2210,11,C,15.0,fb9df42a-ee82-4e01-ac6f-55cb9980570b,17.99,-0.010000930247418438,0.02389999999999759,True
216,17.9727,True,18.0,18.0,18.000000930247417,2780,11,C,15.0,ac2e24a5-9d04-4ef1-946c-c25aaf2f18f2,18.02,0.0199990697525827,0.0472999999999999,True
217,17.9724,True,18.0,18.0,18.000000930247417,3014,11,C,15.0,055b372f-f762-47c5-941a-2cb00d7cda04,18.0,-9.302474168748631e-07,0.027599999999999625,True
218,17.9694,True,18.0,18.0,18.000000930247417,2024,11,C,15.0,beedcfd6-bdf5-4a34-9cda-b1604465b540,18.01,0.009999069752584688,0.0406000000000013,True
219,17.9576,True,18.0,18.0,18.000000930247417,2684,11,C,15.0,c3233d49-87e1-4d23-9818-f06344cd1db6,17.99,-0.010000930247418438,0.032399999999999096,True
220,17.9695,True,18.0,18.0,18.000000930247417,1963,11,C,15.0,7113d034-a8a8-4232-b77f-3b2eaf846b60,18.02,0.0199990697525827,0.050499999999999545,True
221,17.97,True,18.0,18.0,18.000000930247417,2474,11,C,15.0,14da21ff-152c-4abc-bf3d-046d4bf5d75e,18.01,0.009999069752584688,0.0400000000000027,True
222,17.9671,True,18.0,18.0,18.000000930247417,1870,11,C,15.0,0dc0adb5-4dc2-4005-9f1f-8b8bd1f57abb,18.03,0.029999069752584262,0.06290000000000262,True
223,17.9593,True,18.0,18.0,18.000000930247417,2054,11,C,15.0,d12551f7-ceb0-4845-880b-f15fca1b61d0,17.98,-0.02000093024741645,0.020700000000001495,True
224,17.9691,True,18.0,18.0,18.000000930247417,1900,11,C,15.0,594ead1b-ac0d-4325-a117-65e133bd8532,17.99,-0.010000930247418438,0.020899999999997476,True
225,17.9679,True,18.0,18.0,18.000000930247417,2150,11,C,15.0,ed18384f-332f-48a7-9fd8-3baa0a65961e,18.0,-9.302474168748631e-07,0.032099999999999795,True
226,17.9654,True,18.0,18.0,18.000000930247417,2174,11,C,15.0,dcc88c0c-dbcd-4535-9f74-fc328ceb81bc,18.0,-9.302474168748631e-07,0.034600000000001074,True
227,17.9649,True,18.0,18.0,18.000000930247417,2955,11,C,15.0,1783b20a-f98f-4523-a3f7-0a94ea9849ed,18.0,-9.302474168748631e-07,0.03509999999999991,True
228,17.9674,True,18.0,18.0,18.000000930247417,1696,11,C,15.0,abe3cd58-9746-4c59-9990-3b9b2b004d74,18.0,-9.302474168748631e-07,0.03259999999999863,True
229,17.9751,True,18.0,18.0,18.000000930247417,2504,11,C,15.0,dd5ec703-3175-47ac-94a6-01d45b452ede,18.01,0.009999069752584688,0.034900000000000375,True
230,17.9674,True,18.0,18.0,18.000000930247417,2594,11,C,15.0,ba7f6542-3315-40ba-9a79-b5589f9cf315,18.01,0.009999069752584688,0.04260000000000019,True
231,17.9533,True,18.0,18.0,18.000000930247417,1810,11,C,15.0,d8ca34de-63e8-418e-822d-8ba8e053f9e8,18.0,-9.302474168748631e-07,0.046700000000001296,True
232,17.9552,True,18.0,18.0,18.000000930247417,1994,11,C,15.0,8c00b080-a571-483c-83c5-0e6252bec595,18.0,-9.302474168748631e-07,0.04479999999999862,True
233,17.9679,True,18.0,18.0,18.000000930247417,2444,11,C,15.0,9e1d80f2-7b5c-4eb7-9bcc-b741480f7c42,17.99,-0.010000930247418438,0.022099999999998232,True
234,17.9589,True,18.0,18.0,18.000000930247417,2240,11,C,15.0,5db73712-5634-4546-8ca1-665d02710425,17.99,-0.010000930247418438,0.031099999999998573,True
235,17.9778,True,18.0,18.0,18.000000930247417,2864,11,C,15.0,73c14f4e-1bdb-4df7-b14a-62a63dba2bac,18.0,-9.302474168748631e-07,0.022200000000001552,True
236,17.9686,True,18.0,18.0,18.000000930247417,2384,11,C,15.0,95998d43-ff5d-41fa-8fcc-19d8b97e6db9,18.0,-9.302474168748631e-07,0.03140000000000143,True
237,17.9639,True,18.0,18.0,18.000000930247417,2264,11,C,15.0,08e72ec8-ecf6-4e89-802d-a2ba50f88646,17.99,-0.010000930247418438,0.026099999999999568,True
238,17.9547,True,18.0,18.0,18.000000930247417,2294,11,C,15.0,3f5166b4-f772-4a9c-aac5-1f83e7c73561,18.01,0.009999069752584688,0.05530000000000257,True
239,17.9739,True,18.0,18.0,18.000000930247417,2714,11,C,15.0,92886526-f4a1-4912-8c9c-293bd9e39bf2,18.0,-9.302474168748631e-07,0.026099999999999568,True
240,17.971,True,18.0,18.0,18.000000930247417,2624,11,C,15.0,b44eb084-81e8-4309-8a96-e5fadd99f2b0,18.0,-9.302474168748631e-07,0.028999999999999915,True
241,17.9616,True,18.0,18.0,18.000000930247417,2750,11,C,15.0,2617a858-14bf-4149-9501-e702742f3f73,17.99,-0.010000930247418438,0.02839999999999776,True
242,17.9643,True,18.0,18.0,18.000000930247417,2114,11,C,15.0,ba1ef204-2427-48d3-a21d-c755a268bd91,17.99,-0.010000930247418438,0.025699999999996948,True
243,17.9695,True,18.0,18.0,18.000000930247417,1726,11,C,15.0,b1164c60-277b-4574-aa65-aaebf6212ae5,18.0,-9.302474168748631e-07,0.03049999999999997,True
244,17.9774,True,18.0,18.0,18.000000930247417,2804,11,C,15.0,375f8a3d-e6bb-4fa2-ac0d-44f3be40ef03,18.0,-9.302474168748631e-07,0.02260000000000062,True
245,17.9559,True,18.0,18.0,18.000000930247417,2834,11,C,15.0,2f6f1fdd-0978-4bdc-88fe-2cfe4e19e3a7,18.0,-9.302474168748631e-07,0.04410000000000025,True
246,19.6209,False,19.4,19.46,19.419924412456062,1525,10,D,21.0,957874d9-d233-41ed-8b78-2303ddec74c1,19.47,0.050075587543936706,-0.15090000000000003,True
247,19.6119,False,19.4,19.46,19.419924412456062,1495,10,D,21.0,53af360d-f772-40b1-b4d8-97b66fa7b63f,19.47,0.050075587543936706,-0.1418999999999997,True
248,19.5766,False,19.4,19.46,19.419924412456062,1555,10,D,21.0,40cfa885-c274-4e20-87a2-cfe1b68ebf78,19.47,0.050075587543936706,-0.10660000000000025,True
249,19.6486,False,19.4,19.46,19.419924412456062,1465,10,D,21.0,19b8a1cf-5753-4bfb-9d2e-529802e426b0,19.47,0.050075587543936706,-0.17859999999999943,True
250,19.5543,False,19.4,19.46,19.419924412456062,1411,10,D,21.0,8a471e6c-1ff4-4f00-8012-beec8c53ae8a,19.47,0.050075587543936706,-0.08430000000000248,True
251,19.4156,True,19.4,19.46,19.419924412456062,56,7,D,21.0,be48090f-5fe8-439b-b200-3ddb76b44fc2,19.47,0.050075587543936706,0.05439999999999756,True
252,19.3899,True,19.4,19.46,19.419924412456062,316,7,D,21.0,366ace20-ff87-4d6a-ac89-2f73321ee794,19.47,0.050075587543936706,0.08009999999999806,True
253,19.3882,True,19.4,19.46,19.419924412456062,87,7,D,21.0,576692a2-749a-472c-8933-b6513a5e0d25,19.47,0.050075587543936706,0.08179999999999765,True
254,19.4083,True,19.4,19.46,19.419924412456062,3,7,D,21.0,92f1622b-f6c5-4025-ad12-2a5dfb86912e,19.47,0.050075587543936706,0.06169999999999831,True
255,19.4118,True,19.4,19.46,19.419924412456062,278,7,D,21.0,e96864ce-81d4-4f87-8fd3-a1a4c746e8cc,19.47,0.050075587543936706,0.05819999999999936,True
256,19.4004,True,19.4,19.46,19.419924412456062,120,7,D,21.0,52852e1c-7052-410c-9813-08a109900b32,19.47,0.050075587543936706,0.06959999999999766,True
257,19.4325,True,19.4,19.46,19.419924412456062,149,7,D,21.0,d3bcbf36-90e5-40a1-8c06-43d38b8341bb,19.47,0.050075587543936706,0.03749999999999787,True
258,19.4069,True,19.4,19.46,19.419924412456062,213,7,D,21.0,011c2ecc-b97e-4ef0-9067-e189aaaa01d4,19.47,0.050075587543936706,0.0630999999999986,True
259,19.3982,True,19.4,19.46,19.419924412456062,340,7,D,21.0,3f68da66-be30-4c4d-afb2-afc627ab73a4,19.47,0.050075587543936706,0.07179999999999964,True
260,19.4141,True,19.4,19.46,19.419924412456062,27,7,D,21.0,f9838fc0-6c08-4923-bd1d-bcb53fd61e25,19.47,0.050075587543936706,0.05589999999999762,True
261,19.3911,True,19.4,19.46,19.419924412456062,183,7,D,21.0,2f1932fa-df49-4ce5-8afe-1bfbcd94f6ff,19.47,0.050075587543936706,0.0788999999999973,True
262,19.402,True,19.4,19.46,19.419924412456062,246,7,D,21.0,04a25a68-7e23-47b3-bafd-c904b058cee8,19.47,0.050075587543936706,0.06799999999999784,True
263,19.4288,True,19.4,19.46,19.419924412456062,515,8,D,21.0,3552bcab-5183-4c41-8c2b-cfe4f8ee3a88,19.47,0.050075587543936706,0.0411999999999999,True
264,19.3908,True,19.4,19.46,19.419924412456062,689,8,D,21.0,371557a9-e87d-4028-a9cc-f5a329e02586,19.47,0.050075587543936706,0.07920000000000016,True
265,19.4077,True,19.4,19.46,19.419924412456062,486,8,D,21.0,c83b3d54-e4e7-413f-bb18-5838550af94c,19.47,0.050075587543936706,0.062300000000000466,True
266,19.3977,True,19.4,19.46,19.419924412456062,602,8,D,21.0,b34c4b85-c219-4c46-8377-b6490cb0e3cd,19.47,0.050075587543936706,0.07229999999999848,True
267,19.3871,True,19.4,19.46,19.419924412456062,776,8,D,21.0,79311a5e-22b3-4742-8e3e-702a476e6628,19.47,0.050075587543936706,0.08289999999999864,True
268,19.4212,True,19.4,19.46,19.419924412456062,428,8,D,21.0,dc2448d2-87c1-4223-8b7c-7f1b9815ba59,19.47,0.050075587543936706,0.048799999999999955,True
269,19.4214,True,19.4,19.46,19.419924412456062,375,8,D,21.0,148bd2ea-ea87-4311-bb41-ae7167891749,19.47,0.050075587543936706,0.04860000000000042,True
270,19.3892,True,19.4,19.46,19.419924412456062,631,8,D,21.0,73c4cdc5-0f4d-4c8b-9a95-61d6ab63f01d,19.47,0.050075587543936706,0.08079999999999998,True
271,19.3991,True,19.4,19.46,19.419924412456062,660,8,D,21.0,0b029562-e4c4-469b-b370-3bf6712a8c1c,19.47,0.050075587543936706,0.07089999999999819,True
272,19.4141,True,19.4,19.46,19.419924412456062,718,8,D,21.0,e9b72b04-1a8b-4f81-a2dd-2925aecf929c,19.47,0.050075587543936706,0.05589999999999762,True
273,19.4059,True,19.4,19.46,19.419924412456062,810,8,D,21.0,dab0a9f0-9a94-4a2f-ba58-7f727e4c568f,19.47,0.050075587543936706,0.06409999999999982,True
274,19.39,True,19.4,19.46,19.419924412456062,457,8,D,21.0,d97e484d-2300-4c39-b610-65ebae5ab6fa,19.47,0.050075587543936706,0.0799999999999983,True
275,19.3873,True,19.4,19.46,19.419924412456062,839,8,D,21.0,ed788987-b1a0-4103-b3d0-3765dc64cd03,19.47,0.050075587543936706,0.08269999999999911,True
276,19.4128,True,19.4,19.46,19.419924412456062,573,8,D,21.0,c3ee557f-3c5b-4f69-a005-b8b03be647bc,19.47,0.050075587543936706,0.05719999999999814,True
277,19.4013,True,19.4,19.46,19.419924412456062,399,8,D,21.0,cee4648c-174c-4317-aaf9-3e30920d3e29,19.47,0.050075587543936706,0.06869999999999976,True
278,19.39,True,19.4,19.46,19.419924412456062,544,8,D,21.0,dd730999-f518-4a3e-8582-31b3e9b19c11,19.47,0.050075587543936706,0.0799999999999983,True
279,19.3937,True,19.4,19.46,19.419924412456062,1038,9,D,21.0,faea7075-cc15-41b9-94c1-bb3a45c4f298,19.47,0.050075587543936706,0.07629999999999981,True
280,19.3963,True,19.4,19.46,19.419924412456062,869,9,D,21.0,18e9c503-9102-4efc-977e-d70a2952d885,19.47,0.050075587543936706,0.07369999999999877,True
281,19.4016,True,19.4,19.46,19.419924412456062,1183,9,D,21.0,de6261d9-169a-4b6c-a464-267615e094fc,19.47,0.050075587543936706,0.06840000000000046,True
282,19.4075,True,19.4,19.46,19.419924412456062,1067,9,D,21.0,645b6edf-8c6b-405d-98c0-8225ddc9d3f4,19.47,0.050075587543936706,0.0625,True
283,19.3953,True,19.4,19.46,19.419924412456062,1270,9,D,21.0,f0cdaabc-61d2-4601-ab2e-759a18abaabc,19.47,0.050075587543936706,0.07469999999999999,True
284,19.4014,True,19.4,19.46,19.419924412456062,1304,9,D,21.0,b60c6ff0-8eb4-436c-be2b-b925dfcce87b,19.47,0.050075587543936706,0.0686,True
285,19.4117,True,19.4,19.46,19.419924412456062,1009,9,D,21.0,3521d752-1289-43ba-8262-9326fe6a37a1,19.47,0.050075587543936706,0.05829999999999913,True
286,19.3866,True,19.4,19.46,19.419924412456062,1125,9,D,21.0,9d24f4fd-92fe-4003-9b74-5e720fa49e8e,19.47,0.050075587543936706,0.08339999999999748,True
287,19.403,True,19.4,19.46,19.419924412456062,951,9,D,21.0,ce67919e-e686-4108-93f7-6147f377f3e0,19.47,0.050075587543936706,0.06700000000000017,True
288,19.3892,True,19.4,19.46,19.419924412456062,1154,9,D,21.0,3a1bc776-fa11-419c-bc8e-3dcccd11f654,19.47,0.050075587543936706,0.08079999999999998,True
289,19.418,True,19.4,19.46,19.419924412456062,1212,9,D,21.0,61ac0d8f-487a-4f82-b93b-915b10160090,19.47,0.050075587543936706,0.0519999999999996,True
290,19.4003,True,19.4,19.46,19.419924412456062,1241,9,D,21.0,0c675113-e896-4652-b2ee-6e6748ff7e2d,19.47,0.050075587543936706,0.06969999999999743,True
291,19.3916,True,19.4,19.46,19.419924412456062,980,9,D,21.0,637aa24b-ce2c-4149-b832-914cefd40e6f,19.47,0.050075587543936706,0.07839999999999847,True
292,19.567,False,19.4,19.46,19.419924412456062,2414,11,D,21.0,bf8c2a59-2e8d-4068-812d-e33600a9b357,19.47,0.050075587543936706,-0.09700000000000131,True
293,19.6137,False,19.4,19.46,19.419924412456062,2894,11,D,21.0,3f197f93-a1fa-4ab1-ab69-ca5268def52a,19.47,0.050075587543936706,-0.1437000000000026,True
294,19.6132,False,19.4,19.46,19.419924412456062,1840,11,D,21.0,0b5a01d1-3de8-415c-997f-a2916a503eac,19.47,0.050075587543936706,-0.14320000000000022,True
295,19.6113,False,19.4,19.46,19.419924412456062,2084,11,D,21.0,e943bfee-4586-4805-912d-5b9bdd5a068a,19.47,0.050075587543936706,-0.1413000000000011,True
296,19.58,False,19.4,19.46,19.419924412456062,1933,11,D,21.0,b791e80f-67e5-4dc1-a6bd-c4265372db88,19.47,0.050075587543936706,-0.10999999999999943,True
297,19.5746,False,19.4,19.46,19.419924412456062,2210,11,D,21.0,fb9df42a-ee82-4e01-ac6f-55cb9980570b,19.47,0.050075587543936706,-0.10460000000000136,True
298,19.5501,False,19.4,19.46,19.419924412456062,2780,11,D,21.0,ac2e24a5-9d04-4ef1-946c-c25aaf2f18f2,19.47,0.050075587543936706,-0.08010000000000161,True
299,19.6077,False,19.4,19.46,19.419924412456062,3014,11,D,21.0,055b372f-f762-47c5-941a-2cb00d7cda04,19.47,0.050075587543936706,-0.13770000000000238,True
300,19.5652,False,19.4,19.46,19.419924412456062,2024,11,D,21.0,beedcfd6-bdf5-4a34-9cda-b1604465b540,19.47,0.050075587543936706,-0.09520000000000195,True
301,19.5409,False,19.4,19.46,19.419924412456062,2684,11,D,21.0,c3233d49-87e1-4d23-9818-f06344cd1db6,19.47,0.050075587543936706,-0.07090000000000174,True
302,19.6094,False,19.4,19.46,19.419924412456062,1963,11,D,21.0,7113d034-a8a8-4232-b77f-3b2eaf846b60,19.47,0.050075587543936706,-0.13940000000000197,True
303,19.5618,False,19.4,19.46,19.419924412456062,2474,11,D,21.0,14da21ff-152c-4abc-bf3d-046d4bf5d75e,19.47,0.050075587543936706,-0.09180000000000277,True
304,19.5656,False,19.4,19.46,19.419924412456062,1870,11,D,21.0,0dc0adb5-4dc2-4005-9f1f-8b8bd1f57abb,19.47,0.050075587543936706,-0.09560000000000102,True
305,19.5221,False,19.4,19.46,19.419924412456062,2054,11,D,21.0,d12551f7-ceb0-4845-880b-f15fca1b61d0,19.47,0.050075587543936706,-0.05209999999999937,True
306,19.5573,False,19.4,19.46,19.419924412456062,1900,11,D,21.0,594ead1b-ac0d-4325-a117-65e133bd8532,19.47,0.050075587543936706,-0.0873000000000026,True
307,19.5819,False,19.4,19.46,19.419924412456062,2150,11,D,21.0,ed18384f-332f-48a7-9fd8-3baa0a65961e,19.47,0.050075587543936706,-0.11190000000000211,True
308,19.5772,False,19.4,19.46,19.419924412456062,2174,11,D,21.0,dcc88c0c-dbcd-4535-9f74-fc328ceb81bc,19.47,0.050075587543936706,-0.1072000000000024,True
309,19.5354,False,19.4,19.46,19.419924412456062,2955,11,D,21.0,1783b20a-f98f-4523-a3f7-0a94ea9849ed,19.47,0.050075587543936706,-0.06540000000000035,True
310,19.5969,False,19.4,19.46,19.419924412456062,1696,11,D,21.0,abe3cd58-9746-4c59-9990-3b9b2b004d74,19.47,0.050075587543936706,-0.12690000000000268,True
311,19.6219,False,19.4,19.46,19.419924412456062,2504,11,D,21.0,dd5ec703-3175-47ac-94a6-01d45b452ede,19.47,0.050075587543936706,-0.15190000000000126,True
312,19.5307,False,19.4,19.46,19.419924412456062,2594,11,D,21.0,ba7f6542-3315-40ba-9a79-b5589f9cf315,19.47,0.050075587543936706,-0.06070000000000064,True
313,19.5465,False,19.4,19.46,19.419924412456062,1810,11,D,21.0,d8ca34de-63e8-418e-822d-8ba8e053f9e8,19.47,0.050075587543936706,-0.0765000000000029,True
314,19.5831,False,19.4,19.46,19.419924412456062,1994,11,D,21.0,8c00b080-a571-483c-83c5-0e6252bec595,19.47,0.050075587543936706,-0.11310000000000286,True
315,19.6122,False,19.4,19.46,19.419924412456062,2444,11,D,21.0,9e1d80f2-7b5c-4eb7-9bcc-b741480f7c42,19.47,0.050075587543936706,-0.14220000000000255,True
316,19.5766,False,19.4,19.46,19.419924412456062,2240,11,D,21.0,5db73712-5634-4546-8ca1-665d02710425,19.47,0.050075587543936706,-0.10660000000000025,True
317,19.5722,False,19.4,19.46,19.419924412456062,2864,11,D,21.0,73c14f4e-1bdb-4df7-b14a-62a63dba2bac,19.47,0.050075587543936706,-0.10219999999999985,True
318,19.5434,False,19.4,19.46,19.419924412456062,2384,11,D,21.0,95998d43-ff5d-41fa-8fcc-19d8b97e6db9,19.47,0.050075587543936706,-0.07339999999999947,True
319,19.6098,False,19.4,19.46,19.419924412456062,2264,11,D,21.0,08e72ec8-ecf6-4e89-802d-a2ba50f88646,19.47,0.050075587543936706,-0.13980000000000103,True
320,19.5548,False,19.4,19.46,19.419924412456062,2294,11,D,21.0,3f5166b4-f772-4a9c-aac5-1f83e7c73561,19.47,0.050075587543936706,-0.08480000000000132,True
321,19.6073,False,19.4,19.46,19.419924412456062,2714,11,D,21.0,92886526-f4a1-4912-8c9c-293bd9e39bf2,19.47,0.050075587543936706,-0.13729999999999976,True
322,19.5911,False,19.4,19.46,19.419924412456062,2624,11,D,21.0,b44eb084-81e8-4309-8a96-e5fadd99f2b0,19.47,0.050075587543936706,-0.12110000000000198,True
323,19.5527,False,19.4,19.46,19.419924412456062,2750,11,D,21.0,2617a858-14bf-4149-9501-e702742f3f73,19.47,0.050075587543936706,-0.08270000000000266,True
324,19.5643,False,19.4,19.46,19.419924412456062,2114,11,D,21.0,ba1ef204-2427-48d3-a21d-c755a268bd91,19.47,0.050075587543936706,-0.0943000000000005,True
325,19.5378,False,19.4,19.46,19.419924412456062,1726,11,D,21.0,b1164c60-277b-4574-aa65-aaebf6212ae5,19.47,0.050075587543936706,-0.06780000000000186,True
326,19.5825,False,19.4,19.46,19.419924412456062,2804,11,D,21.0,375f8a3d-e6bb-4fa2-ac0d-44f3be40ef03,19.47,0.050075587543936706,-0.11250000000000071,True
327,19.5419,False,19.4,19.46,19.419924412456062,2834,11,D,21.0,2f6f1fdd-0978-4bdc-88fe-2cfe4e19e3a7,19.47,0.050075587543936706,-0.07189999999999941,True
328,21.993,True,22.0,22.0,22.0,1525,10,E,29.0,957874d9-d233-41ed-8b78-2303ddec74c1,21.99,-0.010000000000001563,-0.0030000000000001137,True
329,21.9974,True,22.0,22.0,22.0,1495,10,E,29.0,53af360d-f772-40b1-b4d8-97b66fa7b63f,22.0,0.0,0.002600000000001046,True
330,21.9988,True,22.0,22.0,22.0,1555,10,E,29.0,40cfa885-c274-4e20-87a2-cfe1b68ebf78,22.0,0.0,0.001200000000000756,True
331,22.0019,True,22.0,22.0,22.0,1465,10,E,29.0,19b8a1cf-5753-4bfb-9d2e-529802e426b0,22.01,0.010000000000001563,0.008100000000002439,True
332,21.9959,True,22.0,22.0,22.0,1411,10,E,29.0,8a471e6c-1ff4-4f00-8012-beec8c53ae8a,22.0,0.0,0.004100000000001103,True
333,21.9983,True,22.0,22.0,22.0,56,7,E,29.0,be48090f-5fe8-439b-b200-3ddb76b44fc2,22.02,0.019999999999999574,0.021699999999999164,True
334,22.0014,True,22.0,22.0,22.0,316,7,E,29.0,366ace20-ff87-4d6a-ac89-2f73321ee794,22.03,0.030000000000001137,0.028600000000000847,True
335,21.9984,True,22.0,22.0,22.0,87,7,E,29.0,576692a2-749a-472c-8933-b6513a5e0d25,22.03,0.030000000000001137,0.03160000000000096,True
336,22.0055,True,22.0,22.0,22.0,3,7,E,29.0,92f1622b-f6c5-4025-ad12-2a5dfb86912e,22.02,0.019999999999999574,0.014499999999998181,True
337,22.0019,True,22.0,22.0,22.0,278,7,E,29.0,e96864ce-81d4-4f87-8fd3-a1a4c746e8cc,22.02,0.019999999999999574,0.01810000000000045,True
338,22.0057,True,22.0,22.0,22.0,120,7,E,29.0,52852e1c-7052-410c-9813-08a109900b32,22.02,0.019999999999999574,0.014299999999998647,True
339,22.0,True,22.0,22.0,22.0,149,7,E,29.0,d3bcbf36-90e5-40a1-8c06-43d38b8341bb,22.03,0.030000000000001137,0.030000000000001137,True
340,22.0043,True,22.0,22.0,22.0,213,7,E,29.0,011c2ecc-b97e-4ef0-9067-e189aaaa01d4,22.03,0.030000000000001137,0.0257000000000005,True
341,22.0109,True,22.0,22.0,22.0,340,7,E,29.0,3f68da66-be30-4c4d-afb2-afc627ab73a4,22.03,0.030000000000001137,0.01910000000000167,True
342,21.9989,True,22.0,22.0,22.0,27,7,E,29.0,f9838fc0-6c08-4923-bd1d-bcb53fd61e25,22.03,0.030000000000001137,0.031100000000002126,True
343,22.0081,True,22.0,22.0,22.0,183,7,E,29.0,2f1932fa-df49-4ce5-8afe-1bfbcd94f6ff,22.02,0.019999999999999574,0.011900000000000688,True
344,22.0071,True,22.0,22.0,22.0,246,7,E,29.0,04a25a68-7e23-47b3-bafd-c904b058cee8,22.02,0.019999999999999574,0.012899999999998357,True
345,22.0035,True,22.0,22.0,22.0,515,8,E,29.0,3552bcab-5183-4c41-8c2b-cfe4f8ee3a88,22.03,0.030000000000001137,0.02650000000000219,True
346,22.0065,True,22.0,22.0,22.0,689,8,E,29.0,371557a9-e87d-4028-a9cc-f5a329e02586,22.02,0.019999999999999574,0.013500000000000512,True
347,22.0047,True,22.0,22.0,22.0,486,8,E,29.0,c83b3d54-e4e7-413f-bb18-5838550af94c,22.02,0.019999999999999574,0.01529999999999987,True
348,22.0036,True,22.0,22.0,22.0,602,8,E,29.0,b34c4b85-c219-4c46-8377-b6490cb0e3cd,22.02,0.019999999999999574,0.01640000000000086,True
349,22.0089,True,22.0,22.0,22.0,776,8,E,29.0,79311a5e-22b3-4742-8e3e-702a476e6628,22.02,0.019999999999999574,0.011099999999999,True
350,22.0056,True,22.0,22.0,22.0,428,8,E,29.0,dc2448d2-87c1-4223-8b7c-7f1b9815ba59,22.03,0.030000000000001137,0.024399999999999977,True
351,22.0109,True,22.0,22.0,22.0,375,8,E,29.0,148bd2ea-ea87-4311-bb41-ae7167891749,22.03,0.030000000000001137,0.01910000000000167,True
352,22.0062,True,22.0,22.0,22.0,631,8,E,29.0,73c4cdc5-0f4d-4c8b-9a95-61d6ab63f01d,22.02,0.019999999999999574,0.013799999999999812,True
353,21.9989,True,22.0,22.0,22.0,660,8,E,29.0,0b029562-e4c4-469b-b370-3bf6712a8c1c,22.02,0.019999999999999574,0.021100000000000563,True
354,22.0063,True,22.0,22.0,22.0,718,8,E,29.0,e9b72b04-1a8b-4f81-a2dd-2925aecf929c,22.02,0.019999999999999574,0.013700000000000045,True
355,22.0106,True,22.0,22.0,22.0,810,8,E,29.0,dab0a9f0-9a94-4a2f-ba58-7f727e4c568f,22.02333333333333,0.023333333333329875,0.01273333333332971,True
356,22.0033,True,22.0,22.0,22.0,457,8,E,29.0,d97e484d-2300-4c39-b610-65ebae5ab6fa,22.02,0.019999999999999574,0.01670000000000016,True
357,22.0102,True,22.0,22.0,22.0,839,8,E,29.0,ed788987-b1a0-4103-b3d0-3765dc64cd03,22.03,0.030000000000001137,0.01980000000000004,True
358,22.0042,True,22.0,22.0,22.0,573,8,E,29.0,c3ee557f-3c5b-4f69-a005-b8b03be647bc,22.02,0.019999999999999574,0.015799999999998704,True
359,22.0055,True,22.0,22.0,22.0,399,8,E,29.0,cee4648c-174c-4317-aaf9-3e30920d3e29,22.03,0.030000000000001137,0.024499999999999744,True
360,22.0094,True,22.0,22.0,22.0,544,8,E,29.0,dd730999-f518-4a3e-8582-31b3e9b19c11,22.03,0.030000000000001137,0.020600000000001728,True
361,22.0011,True,22.0,22.0,22.0,1038,9,E,29.0,faea7075-cc15-41b9-94c1-bb3a45c4f298,22.02,0.019999999999999574,0.018899999999998585,True
362,22.0133,True,22.0,22.0,22.0,869,9,E,29.0,18e9c503-9102-4efc-977e-d70a2952d885,22.03,0.030000000000001137,0.01670000000000016,True
363,22.0099,True,22.0,22.0,22.0,1183,9,E,29.0,de6261d9-169a-4b6c-a464-267615e094fc,22.02,0.019999999999999574,0.01010000000000133,True
364,22.0021,True,22.0,22.0,22.0,1067,9,E,29.0,645b6edf-8c6b-405d-98c0-8225ddc9d3f4,22.02,0.019999999999999574,0.017900000000000915,True
365,22.0097,True,22.0,22.0,22.0,1270,9,E,29.0,f0cdaabc-61d2-4601-ab2e-759a18abaabc,22.02,0.019999999999999574,0.010300000000000864,True
366,22.0084,True,22.0,22.0,22.0,1304,9,E,29.0,b60c6ff0-8eb4-436c-be2b-b925dfcce87b,22.02,0.019999999999999574,0.011599999999997834,True
367,22.0087,True,22.0,22.0,22.0,1009,9,E,29.0,3521d752-1289-43ba-8262-9326fe6a37a1,22.03,0.030000000000001137,0.021300000000000097,True
368,22.0077,True,22.0,22.0,22.0,1125,9,E,29.0,9d24f4fd-92fe-4003-9b74-5e720fa49e8e,22.02,0.019999999999999574,0.012299999999999756,True
369,22.0139,True,22.0,22.0,22.0,951,9,E,29.0,ce67919e-e686-4108-93f7-6147f377f3e0,22.03,0.030000000000001137,0.016100000000001558,True
370,22.0003,True,22.0,22.0,22.0,1154,9,E,29.0,3a1bc776-fa11-419c-bc8e-3dcccd11f654,22.02,0.019999999999999574,0.019700000000000273,True
371,22.0056,True,22.0,22.0,22.0,1212,9,E,29.0,61ac0d8f-487a-4f82-b93b-915b10160090,22.02,0.019999999999999574,0.014399999999998414,True
372,22.0026,True,22.0,22.0,22.0,1241,9,E,29.0,0c675113-e896-4652-b2ee-6e6748ff7e2d,22.02,0.019999999999999574,0.017399999999998528,True
373,22.009,True,22.0,22.0,22.0,980,9,E,29.0,637aa24b-ce2c-4149-b832-914cefd40e6f,22.03,0.030000000000001137,0.021000000000000796,True
374,21.9919,True,22.0,22.0,22.0,2414,11,E,29.0,bf8c2a59-2e8d-4068-812d-e33600a9b357,22.0,0.0,0.008099999999998886,True
375,21.9969,True,22.0,22.0,22.0,2894,11,E,29.0,3f197f93-a1fa-4ab1-ab69-ca5268def52a,22.0,0.0,0.0030999999999998806,True
376,21.9893,True,22.0,22.0,22.0,1840,11,E,29.0,0b5a01d1-3de8-415c-997f-a2916a503eac,21.99,-0.010000000000001563,0.0006999999999983686,True
377,21.9877,True,22.0,22.0,22.0,2084,11,E,29.0,e943bfee-4586-4805-912d-5b9bdd5a068a,22.0,0.0,0.012299999999999756,True
378,21.9854,True,22.0,22.0,22.0,1933,11,E,29.0,b791e80f-67e5-4dc1-a6bd-c4265372db88,21.99,-0.010000000000001563,0.0045999999999999375,True
379,21.9842,True,22.0,22.0,22.0,2210,11,E,29.0,fb9df42a-ee82-4e01-ac6f-55cb9980570b,21.99,-0.010000000000001563,0.005799999999997141,True
380,21.9971,True,22.0,22.0,22.0,2780,11,E,29.0,ac2e24a5-9d04-4ef1-946c-c25aaf2f18f2,22.0,0.0,0.0029000000000003467,True
381,21.9868,True,22.0,22.0,22.0,3014,11,E,29.0,055b372f-f762-47c5-941a-2cb00d7cda04,21.99,-0.010000000000001563,0.0031999999999996476,True
382,21.9908,True,22.0,22.0,22.0,2024,11,E,29.0,beedcfd6-bdf5-4a34-9cda-b1604465b540,21.994999999999997,-0.005000000000002558,0.004199999999997317,True
383,21.9908,True,22.0,22.0,22.0,2684,11,E,29.0,c3233d49-87e1-4d23-9818-f06344cd1db6,22.0,0.0,0.009199999999999875,True
384,21.9917,True,22.0,22.0,22.0,1963,11,E,29.0,7113d034-a8a8-4232-b77f-3b2eaf846b60,22.0,0.0,0.00829999999999842,True
385,21.9877,True,22.0,22.0,22.0,2474,11,E,29.0,14da21ff-152c-4abc-bf3d-046d4bf5d75e,22.0,0.0,0.012299999999999756,True
386,21.9903,True,22.0,22.0,22.0,1870,11,E,29.0,0dc0adb5-4dc2-4005-9f1f-8b8bd1f57abb,22.0,0.0,0.00969999999999871,True
387,21.9856,True,22.0,22.0,22.0,2054,11,E,29.0,d12551f7-ceb0-4845-880b-f15fca1b61d0,21.99,-0.010000000000001563,0.004399999999996851,True
388,21.9902,True,22.0,22.0,22.0,1900,11,E,29.0,594ead1b-ac0d-4325-a117-65e133bd8532,21.99,-0.010000000000001563,-0.0002000000000030866,True
389,21.9893,True,22.0,22.0,22.0,2150,11,E,29.0,ed18384f-332f-48a7-9fd8-3baa0a65961e,21.99,-0.010000000000001563,0.0006999999999983686,True
390,21.9807,True,22.0,22.0,22.0,2174,11,E,29.0,dcc88c0c-dbcd-4535-9f74-fc328ceb81bc,21.99,-0.010000000000001563,0.009299999999999642,True
391,21.9954,True,22.0,22.0,22.0,2955,11,E,29.0,1783b20a-f98f-4523-a3f7-0a94ea9849ed,22.0,0.0,0.0045999999999999375,True
392,21.9878,True,22.0,22.0,22.0,1696,11,E,29.0,abe3cd58-9746-4c59-9990-3b9b2b004d74,21.99,-0.010000000000001563,0.0021999999999984254,True
393,21.9922,True,22.0,22.0,22.0,2504,11,E,29.0,dd5ec703-3175-47ac-94a6-01d45b452ede,22.0,0.0,0.007799999999999585,True
394,21.9874,True,22.0,22.0,22.0,2594,11,E,29.0,ba7f6542-3315-40ba-9a79-b5589f9cf315,21.99,-0.010000000000001563,0.002599999999997493,True
395,21.9869,True,22.0,22.0,22.0,1810,11,E,29.0,d8ca34de-63e8-418e-822d-8ba8e053f9e8,21.99,-0.010000000000001563,0.0030999999999998806,True
396,21.9826,True,22.0,22.0,22.0,1994,11,E,29.0,8c00b080-a571-483c-83c5-0e6252bec595,21.99,-0.010000000000001563,0.0073999999999969646,True
397,21.9842,True,22.0,22.0,22.0,2444,11,E,29.0,9e1d80f2-7b5c-4eb7-9bcc-b741480f7c42,21.99,-0.010000000000001563,0.005799999999997141,True
398,21.985,True,22.0,22.0,22.0,2240,11,E,29.0,5db73712-5634-4546-8ca1-665d02710425,21.99,-0.010000000000001563,0.004999999999999005,True
399,21.9902,True,22.0,22.0,22.0,2864,11,E,29.0,73c14f4e-1bdb-4df7-b14a-62a63dba2bac,22.0,0.0,0.009799999999998477,True
400,21.9935,True,22.0,22.0,22.0,2384,11,E,29.0,95998d43-ff5d-41fa-8fcc-19d8b97e6db9,22.0,0.0,0.006499999999999062,True
401,21.9853,True,22.0,22.0,22.0,2264,11,E,29.0,08e72ec8-ecf6-4e89-802d-a2ba50f88646,21.99,-0.010000000000001563,0.004699999999999704,True
402,21.9822,True,22.0,22.0,22.0,2294,11,E,29.0,3f5166b4-f772-4a9c-aac5-1f83e7c73561,21.99,-0.010000000000001563,0.007799999999999585,True
403,21.996,True,22.0,22.0,22.0,2714,11,E,29.0,92886526-f4a1-4912-8c9c-293bd9e39bf2,22.0,0.0,0.004000000000001336,True
404,21.9944,True,22.0,22.0,22.0,2624,11,E,29.0,b44eb084-81e8-4309-8a96-e5fadd99f2b0,22.0,0.0,0.00560000000000116,True
405,21.9853,True,22.0,22.0,22.0,2750,11,E,29.0,2617a858-14bf-4149-9501-e702742f3f73,22.0,0.0,0.014700000000001268,True
406,21.9824,True,22.0,22.0,22.0,2114,11,E,29.0,ba1ef204-2427-48d3-a21d-c755a268bd91,21.99,-0.010000000000001563,0.007600000000000051,True
407,21.9904,True,22.0,22.0,22.0,1726,11,E,29.0,b1164c60-277b-4574-aa65-aaebf6212ae5,21.99,-0.010000000000001563,-0.0004000000000026205,True
408,21.9988,True,22.0,22.0,22.0,2804,11,E,29.0,375f8a3d-e6bb-4fa2-ac0d-44f3be40ef03,22.005000000000003,0.005000000000002558,0.006200000000003314,True
409,21.9875,True,22.0,22.0,22.0,2834,11,E,29.0,2f6f1fdd-0978-4bdc-88fe-2cfe4e19e3a7,22.0,0.0,0.01249999999999929,True
410,19.1293,False,19.6,19.71,19.310664499999874,1525,10,F,33.0,957874d9-d233-41ed-8b78-2303ddec74c1,19.29,-0.02066449999987441,0.1606999999999985,True
411,19.1624,False,19.6,19.71,19.310664499999874,1495,10,F,33.0,53af360d-f772-40b1-b4d8-97b66fa7b63f,19.345,0.03433550000012531,0.1825999999999972,True
412,19.2401,False,19.6,19.71,19.310664499999874,1555,10,F,33.0,40cfa885-c274-4e20-87a2-cfe1b68ebf78,19.344,0.03333550000012764,0.10389999999999944,True
413,19.1005,False,19.6,19.71,19.310664499999874,1465,10,F,33.0,19b8a1cf-5753-4bfb-9d2e-529802e426b0,19.3,-0.010664499999872845,0.19950000000000045,True
414,19.2775,False,19.6,19.71,19.310664499999874,1411,10,F,33.0,8a471e6c-1ff4-4f00-8012-beec8c53ae8a,19.339999999999996,0.02933550000012275,0.06249999999999645,True
415,19.639,True,19.6,19.71,19.310664499999874,56,7,F,33.0,be48090f-5fe8-439b-b200-3ddb76b44fc2,,,,
416,19.7018,False,19.6,19.71,19.310664499999874,316,7,F,33.0,366ace20-ff87-4d6a-ac89-2f73321ee794,,,,
417,19.6872,True,19.6,19.71,19.310664499999874,87,7,F,33.0,576692a2-749a-472c-8933-b6513a5e0d25,,,,
418,19.6605,True,19.6,19.71,19.310664499999874,3,7,F,33.0,92f1622b-f6c5-4025-ad12-2a5dfb86912e,,,,
419,19.65,True,19.6,19.71,19.310664499999874,278,7,F,33.0,e96864ce-81d4-4f87-8fd3-a1a4c746e8cc,,,,
420,19.6639,True,19.6,19.71,19.310664499999874,120,7,F,33.0,52852e1c-7052-410c-9813-08a109900b32,,,,
421,19.6023,True,19.6,19.71,19.310664499999874,149,7,F,33.0,d3bcbf36-90e5-40a1-8c06-43d38b8341bb,,,,
422,19.6635,True,19.6,19.71,19.310664499999874,213,7,F,33.0,011c2ecc-b97e-4ef0-9067-e189aaaa01d4,,,,
423,19.6768,True,19.6,19.71,19.310664499999874,340,7,F,33.0,3f68da66-be30-4c4d-afb2-afc627ab73a4,,,,
424,19.6429,True,19.6,19.71,19.310664499999874,27,7,F,33.0,f9838fc0-6c08-4923-bd1d-bcb53fd61e25,,,,
425,19.686,True,19.6,19.71,19.310664499999874,183,7,F,33.0,2f1932fa-df49-4ce5-8afe-1bfbcd94f6ff,,,,
426,19.6707,True,19.6,19.71,19.310664499999874,246,7,F,33.0,04a25a68-7e23-47b3-bafd-c904b058cee8,,,,
427,19.6148,True,19.6,19.71,19.310664499999874,515,8,F,33.0,3552bcab-5183-4c41-8c2b-cfe4f8ee3a88,,,,
428,19.6873,True,19.6,19.71,19.310664499999874,689,8,F,33.0,371557a9-e87d-4028-a9cc-f5a329e02586,,,,
429,19.6645,True,19.6,19.71,19.310664499999874,486,8,F,33.0,c83b3d54-e4e7-413f-bb18-5838550af94c,,,,
430,19.6804,True,19.6,19.71,19.310664499999874,602,8,F,33.0,b34c4b85-c219-4c46-8377-b6490cb0e3cd,,,,
431,19.6945,True,19.6,19.71,19.310664499999874,776,8,F,33.0,79311a5e-22b3-4742-8e3e-702a476e6628,,,,
432,19.6358,True,19.6,19.71,19.310664499999874,428,8,F,33.0,dc2448d2-87c1-4223-8b7c-7f1b9815ba59,,,,
433,19.6363,True,19.6,19.71,19.310664499999874,375,8,F,33.0,148bd2ea-ea87-4311-bb41-ae7167891749,,,,
434,19.6616,True,19.6,19.71,19.310664499999874,631,8,F,33.0,73c4cdc5-0f4d-4c8b-9a95-61d6ab63f01d,,,,
435,19.6632,True,19.6,19.71,19.310664499999874,660,8,F,33.0,0b029562-e4c4-469b-b370-3bf6712a8c1c,,,,
436,19.6263,True,19.6,19.71,19.310664499999874,718,8,F,33.0,e9b72b04-1a8b-4f81-a2dd-2925aecf929c,,,,
437,19.6714,True,19.6,19.71,19.310664499999874,810,8,F,33.0,dab0a9f0-9a94-4a2f-ba58-7f727e4c568f,,,,
438,19.6951,True,19.6,19.71,19.310664499999874,457,8,F,33.0,d97e484d-2300-4c39-b610-65ebae5ab6fa,,,,
439,19.7039,False,19.6,19.71,19.310664499999874,839,8,F,33.0,ed788987-b1a0-4103-b3d0-3765dc64cd03,,,,
440,19.652,True,19.6,19.71,19.310664499999874,573,8,F,33.0,c3ee557f-3c5b-4f69-a005-b8b03be647bc,,,,
441,19.6692,True,19.6,19.71,19.310664499999874,399,8,F,33.0,cee4648c-174c-4317-aaf9-3e30920d3e29,,,,
442,19.7045,False,19.6,19.71,19.310664499999874,544,8,F,33.0,dd730999-f518-4a3e-8582-31b3e9b19c11,,,,
443,19.6984,True,19.6,19.71,19.310664499999874,1038,9,F,33.0,faea7075-cc15-41b9-94c1-bb3a45c4f298,,,,
444,19.6966,True,19.6,19.71,19.310664499999874,869,9,F,33.0,18e9c503-9102-4efc-977e-d70a2952d885,,,,
445,19.6798,True,19.6,19.71,19.310664499999874,1183,9,F,33.0,de6261d9-169a-4b6c-a464-267615e094fc,,,,
446,19.6512,True,19.6,19.71,19.310664499999874,1067,9,F,33.0,645b6edf-8c6b-405d-98c0-8225ddc9d3f4,,,,
447,19.6964,True,19.6,19.71,19.310664499999874,1270,9,F,33.0,f0cdaabc-61d2-4601-ab2e-759a18abaabc,,,,
448,19.671,True,19.6,19.71,19.310664499999874,1304,9,F,33.0,b60c6ff0-8eb4-436c-be2b-b925dfcce87b,,,,
449,19.6664,True,19.6,19.71,19.310664499999874,1009,9,F,33.0,3521d752-1289-43ba-8262-9326fe6a37a1,,,,
450,19.6988,True,19.6,19.71,19.310664499999874,1125,9,F,33.0,9d24f4fd-92fe-4003-9b74-5e720fa49e8e,,,,
451,19.6837,True,19.6,19.71,19.310664499999874,951,9,F,33.0,ce67919e-e686-4108-93f7-6147f377f3e0,,,,
452,19.695,True,19.6,19.71,19.310664499999874,1154,9,F,33.0,3a1bc776-fa11-419c-bc8e-3dcccd11f654,,,,
453,19.6342,True,19.6,19.71,19.310664499999874,1212,9,F,33.0,61ac0d8f-487a-4f82-b93b-915b10160090,,,,
454,19.6747,True,19.6,19.71,19.310664499999874,1241,9,F,33.0,0c675113-e896-4652-b2ee-6e6748ff7e2d,,,,
455,19.6945,True,19.6,19.71,19.310664499999874,980,9,F,33.0,637aa24b-ce2c-4149-b832-914cefd40e6f,,,,
456,19.2302,False,19.6,19.71,19.310664499999874,2414,11,F,33.0,bf8c2a59-2e8d-4068-812d-e33600a9b357,19.375,0.06433550000012644,0.14480000000000004,True
457,19.1307,False,19.6,19.71,19.310664499999874,2894,11,F,33.0,3f197f93-a1fa-4ab1-ab69-ca5268def52a,19.314999999999998,0.004335500000124171,0.1842999999999968,True
458,19.1149,False,19.6,19.71,19.310664499999874,1840,11,F,33.0,0b5a01d1-3de8-415c-997f-a2916a503eac,19.345,0.03433550000012531,0.2301000000000002,True
459,19.1223,False,19.6,19.71,19.310664499999874,2084,11,F,33.0,e943bfee-4586-4805-912d-5b9bdd5a068a,19.185,-0.12566449999987483,0.06269999999999953,False
460,19.1807,False,19.6,19.71,19.310664499999874,1933,11,F,33.0,b791e80f-67e5-4dc1-a6bd-c4265372db88,19.205,-0.10566449999987526,0.024299999999996658,False
461,19.1988,False,19.6,19.71,19.310664499999874,2210,11,F,33.0,fb9df42a-ee82-4e01-ac6f-55cb9980570b,19.215,-0.0956644999998737,0.016200000000001324,True
462,19.2887,False,19.6,19.71,19.310664499999874,2780,11,F,33.0,ac2e24a5-9d04-4ef1-946c-c25aaf2f18f2,19.285,-0.025664499999873414,-0.0036999999999984823,True
463,19.1385,False,19.6,19.71,19.310664499999874,3014,11,F,33.0,055b372f-f762-47c5-941a-2cb00d7cda04,19.330000000000002,0.01933550000012829,0.19150000000000134,True
464,19.2331,False,19.6,19.71,19.310664499999874,2024,11,F,33.0,beedcfd6-bdf5-4a34-9cda-b1604465b540,19.220000000000002,-0.09066449999987114,-0.013099999999997891,True
465,19.272,False,19.6,19.71,19.310664499999874,2684,11,F,33.0,c3233d49-87e1-4d23-9818-f06344cd1db6,19.225,-0.08566449999987213,-0.046999999999997044,True
466,19.1353,False,19.6,19.71,19.310664499999874,1963,11,F,33.0,7113d034-a8a8-4232-b77f-3b2eaf846b60,19.195,-0.11566449999987327,0.05969999999999942,False
467,19.2371,False,19.6,19.71,19.310664499999874,2474,11,F,33.0,14da21ff-152c-4abc-bf3d-046d4bf5d75e,19.245,-0.06566449999987256,0.007899999999999352,True
468,19.2298,False,19.6,19.71,19.310664499999874,1870,11,F,33.0,0dc0adb5-4dc2-4005-9f1f-8b8bd1f57abb,19.225,-0.08566449999987213,-0.004799999999999471,True
469,19.3061,False,19.6,19.71,19.310664499999874,2054,11,F,33.0,d12551f7-ceb0-4845-880b-f15fca1b61d0,19.16,-0.1506644999998734,-0.14610000000000056,False
470,19.243,False,19.6,19.71,19.310664499999874,1900,11,F,33.0,594ead1b-ac0d-4325-a117-65e133bd8532,19.215,-0.0956644999998737,-0.027999999999998693,True
471,19.1883,False,19.6,19.71,19.310664499999874,2150,11,F,33.0,ed18384f-332f-48a7-9fd8-3baa0a65961e,19.215,-0.0956644999998737,0.02669999999999817,True
472,19.1909,False,19.6,19.71,19.310664499999874,2174,11,F,33.0,dcc88c0c-dbcd-4535-9f74-fc328ceb81bc,19.220000000000002,-0.09066449999987114,0.029100000000003234,True
473,19.2985,False,19.6,19.71,19.310664499999874,2955,11,F,33.0,1783b20a-f98f-4523-a3f7-0a94ea9849ed,19.360000000000003,0.04933550000012943,0.06150000000000233,True
474,19.1629,False,19.6,19.71,19.310664499999874,1696,11,F,33.0,abe3cd58-9746-4c59-9990-3b9b2b004d74,19.54,0.2293355000001256,0.37709999999999866,False
475,19.1212,False,19.6,19.71,19.310664499999874,2504,11,F,33.0,dd5ec703-3175-47ac-94a6-01d45b452ede,19.259999999999998,-0.050664499999875545,0.13879999999999626,True
476,19.2912,False,19.6,19.71,19.310664499999874,2594,11,F,33.0,ba7f6542-3315-40ba-9a79-b5589f9cf315,19.270000000000003,-0.04066449999987043,-0.021199999999996777,True
477,19.2558,False,19.6,19.71,19.310664499999874,1810,11,F,33.0,d8ca34de-63e8-418e-822d-8ba8e053f9e8,19.2,-0.11066449999987427,-0.055800000000001404,False
478,19.1744,False,19.6,19.71,19.310664499999874,1994,11,F,33.0,8c00b080-a571-483c-83c5-0e6252bec595,19.169999999999998,-0.1406644999998754,-0.004400000000000404,False
479,19.1217,False,19.6,19.71,19.310664499999874,2444,11,F,33.0,9e1d80f2-7b5c-4eb7-9bcc-b741480f7c42,19.240000000000002,-0.07066449999987157,0.1183000000000014,True
480,19.1817,False,19.6,19.71,19.310664499999874,2240,11,F,33.0,5db73712-5634-4546-8ca1-665d02710425,19.205,-0.10566449999987526,0.023299999999998988,False
481,19.221,False,19.6,19.71,19.310664499999874,2864,11,F,33.0,73c14f4e-1bdb-4df7-b14a-62a63dba2bac,19.255,-0.05566449999987455,0.03399999999999892,True
482,19.2828,False,19.6,19.71,19.310664499999874,2384,11,F,33.0,95998d43-ff5d-41fa-8fcc-19d8b97e6db9,19.245,-0.06566449999987256,-0.03780000000000072,True
483,19.1197,False,19.6,19.71,19.310664499999874,2264,11,F,33.0,08e72ec8-ecf6-4e89-802d-a2ba50f88646,19.235,-0.07566449999987412,0.11529999999999774,True
484,19.2348,False,19.6,19.71,19.310664499999874,2294,11,F,33.0,3f5166b4-f772-4a9c-aac5-1f83e7c73561,19.220000000000002,-0.09066449999987114,-0.014799999999997482,True
485,19.1611,False,19.6,19.71,19.310664499999874,2714,11,F,33.0,92886526-f4a1-4912-8c9c-293bd9e39bf2,19.294999999999998,-0.015664499999875403,0.13389999999999702,True
486,19.1936,False,19.6,19.71,19.310664499999874,2624,11,F,33.0,b44eb084-81e8-4309-8a96-e5fadd99f2b0,19.380000000000003,0.069335500000129,0.18640000000000256,True
487,19.2569,False,19.6,19.71,19.310664499999874,2750,11,F,33.0,2617a858-14bf-4149-9501-e702742f3f73,19.275000000000002,-0.035664499999871424,0.01810000000000045,True
488,19.2099,False,19.6,19.71,19.310664499999874,2114,11,F,33.0,ba1ef204-2427-48d3-a21d-c755a268bd91,19.215,-0.0956644999998737,0.005099999999998772,True
489,19.3046,False,19.6,19.71,19.310664499999874,1726,11,F,33.0,b1164c60-277b-4574-aa65-aaebf6212ae5,19.225,-0.08566449999987213,-0.07959999999999923,True
490,19.2236,False,19.6,19.71,19.310664499999874,2804,11,F,33.0,375f8a3d-e6bb-4fa2-ac0d-44f3be40ef03,19.355,0.04433550000012687,0.1313999999999993,True
491,19.2731,False,19.6,19.71,19.310664499999874,2834,11,F,33.0,2f6f1fdd-0978-4bdc-88fe-2cfe4e19e3a7,19.380000000000003,0.069335500000129,0.1069000000000031,True
492,19.2687,False,18.78,18.55,18.149166000000054,1525,10,G,36.0,957874d9-d233-41ed-8b78-2303ddec74c1,18.169999999999998,0.020833999999943842,-1.098700000000001,True
493,19.2417,False,18.78,18.55,18.149166000000054,1495,10,G,36.0,53af360d-f772-40b1-b4d8-97b66fa7b63f,18.11,-0.03916600000005488,-1.1317000000000021,True
494,19.1612,False,18.78,18.55,18.149166000000054,1555,10,G,36.0,40cfa885-c274-4e20-87a2-cfe1b68ebf78,18.115,-0.034166000000055874,-1.0462000000000025,True
495,19.3102,False,18.78,18.55,18.149166000000054,1465,10,G,36.0,19b8a1cf-5753-4bfb-9d2e-529802e426b0,18.165000000000003,0.01583399999994839,-1.1451999999999956,True
496,19.1229,False,18.78,18.55,18.149166000000054,1411,10,G,36.0,8a471e6c-1ff4-4f00-8012-beec8c53ae8a,18.119999999999997,-0.02916600000005687,-1.002900000000004,True
497,18.777,True,18.78,18.55,18.149166000000054,56,7,G,36.0,be48090f-5fe8-439b-b200-3ddb76b44fc2,,,,
498,18.7256,True,18.78,18.55,18.149166000000054,316,7,G,36.0,366ace20-ff87-4d6a-ac89-2f73321ee794,,,,
499,18.7255,True,18.78,18.55,18.149166000000054,87,7,G,36.0,576692a2-749a-472c-8933-b6513a5e0d25,,,,
500,18.7594,True,18.78,18.55,18.149166000000054,3,7,G,36.0,92f1622b-f6c5-4025-ad12-2a5dfb86912e,,,,
501,18.7687,True,18.78,18.55,18.149166000000054,278,7,G,36.0,e96864ce-81d4-4f87-8fd3-a1a4c746e8cc,,,,
502,18.7535,True,18.78,18.55,18.149166000000054,120,7,G,36.0,52852e1c-7052-410c-9813-08a109900b32,,,,
503,18.8175,True,18.78,18.55,18.149166000000054,149,7,G,36.0,d3bcbf36-90e5-40a1-8c06-43d38b8341bb,,,,
504,18.7555,True,18.78,18.55,18.149166000000054,213,7,G,36.0,011c2ecc-b97e-4ef0-9067-e189aaaa01d4,,,,
505,18.745,True,18.78,18.55,18.149166000000054,340,7,G,36.0,3f68da66-be30-4c4d-afb2-afc627ab73a4,,,,
506,18.7727,True,18.78,18.55,18.149166000000054,27,7,G,36.0,f9838fc0-6c08-4923-bd1d-bcb53fd61e25,,,,
507,18.7329,True,18.78,18.55,18.149166000000054,183,7,G,36.0,2f1932fa-df49-4ce5-8afe-1bfbcd94f6ff,,,,
508,18.7471,True,18.78,18.55,18.149166000000054,246,7,G,36.0,04a25a68-7e23-47b3-bafd-c904b058cee8,,,,
509,18.8053,True,18.78,18.55,18.149166000000054,515,8,G,36.0,3552bcab-5183-4c41-8c2b-cfe4f8ee3a88,,,,
510,18.7306,True,18.78,18.55,18.149166000000054,689,8,G,36.0,371557a9-e87d-4028-a9cc-f5a329e02586,,,,
511,18.7593,True,18.78,18.55,18.149166000000054,486,8,G,36.0,c83b3d54-e4e7-413f-bb18-5838550af94c,,,,
512,18.7377,True,18.78,18.55,18.149166000000054,602,8,G,36.0,b34c4b85-c219-4c46-8377-b6490cb0e3cd,,,,
513,18.7263,True,18.78,18.55,18.149166000000054,776,8,G,36.0,79311a5e-22b3-4742-8e3e-702a476e6628,,,,
514,18.7881,True,18.78,18.55,18.149166000000054,428,8,G,36.0,dc2448d2-87c1-4223-8b7c-7f1b9815ba59,,,,
515,18.7879,True,18.78,18.55,18.149166000000054,375,8,G,36.0,148bd2ea-ea87-4311-bb41-ae7167891749,,,,
516,18.7531,True,18.78,18.55,18.149166000000054,631,8,G,36.0,73c4cdc5-0f4d-4c8b-9a95-61d6ab63f01d,,,,
517,18.7529,True,18.78,18.55,18.149166000000054,660,8,G,36.0,0b029562-e4c4-469b-b370-3bf6712a8c1c,,,,
518,18.7883,True,18.78,18.55,18.149166000000054,718,8,G,36.0,e9b72b04-1a8b-4f81-a2dd-2925aecf929c,,,,
519,18.7486,True,18.78,18.55,18.149166000000054,810,8,G,36.0,dab0a9f0-9a94-4a2f-ba58-7f727e4c568f,,,,
520,18.7268,True,18.78,18.55,18.149166000000054,457,8,G,36.0,d97e484d-2300-4c39-b610-65ebae5ab6fa,,,,
521,18.7167,True,18.78,18.55,18.149166000000054,839,8,G,36.0,ed788987-b1a0-4103-b3d0-3765dc64cd03,,,,
522,18.7697,True,18.78,18.55,18.149166000000054,573,8,G,36.0,c3ee557f-3c5b-4f69-a005-b8b03be647bc,,,,
523,18.7538,True,18.78,18.55,18.149166000000054,399,8,G,36.0,cee4648c-174c-4317-aaf9-3e30920d3e29,,,,
524,18.7171,True,18.78,18.55,18.149166000000054,544,8,G,36.0,dd730999-f518-4a3e-8582-31b3e9b19c11,,,,
525,18.7258,True,18.78,18.55,18.149166000000054,1038,9,G,36.0,faea7075-cc15-41b9-94c1-bb3a45c4f298,,,,
526,18.7306,True,18.78,18.55,18.149166000000054,869,9,G,36.0,18e9c503-9102-4efc-977e-d70a2952d885,,,,
527,18.7411,True,18.78,18.55,18.149166000000054,1183,9,G,36.0,de6261d9-169a-4b6c-a464-267615e094fc,,,,
528,18.77,True,18.78,18.55,18.149166000000054,1067,9,G,36.0,645b6edf-8c6b-405d-98c0-8225ddc9d3f4,,,,
529,18.7268,True,18.78,18.55,18.149166000000054,1270,9,G,36.0,f0cdaabc-61d2-4601-ab2e-759a18abaabc,,,,
530,18.7489,True,18.78,18.55,18.149166000000054,1304,9,G,36.0,b60c6ff0-8eb4-436c-be2b-b925dfcce87b,,,,
531,18.7607,True,18.78,18.55,18.149166000000054,1009,9,G,36.0,3521d752-1289-43ba-8262-9326fe6a37a1,,,,
532,18.7205,True,18.78,18.55,18.149166000000054,1125,9,G,36.0,9d24f4fd-92fe-4003-9b74-5e720fa49e8e,,,,
533,18.7413,True,18.78,18.55,18.149166000000054,951,9,G,36.0,ce67919e-e686-4108-93f7-6147f377f3e0,,,,
534,18.7294,True,18.78,18.55,18.149166000000054,1154,9,G,36.0,3a1bc776-fa11-419c-bc8e-3dcccd11f654,,,,
535,18.7913,True,18.78,18.55,18.149166000000054,1212,9,G,36.0,61ac0d8f-487a-4f82-b93b-915b10160090,,,,
536,18.7479,True,18.78,18.55,18.149166000000054,1241,9,G,36.0,0c675113-e896-4652-b2ee-6e6748ff7e2d,,,,
537,18.7334,True,18.78,18.55,18.149166000000054,980,9,G,36.0,637aa24b-ce2c-4149-b832-914cefd40e6f,,,,
538,19.1567,False,18.78,18.55,18.149166000000054,2414,11,G,36.0,bf8c2a59-2e8d-4068-812d-e33600a9b357,18.09,-0.05916600000005445,-1.0667000000000009,True
539,19.2637,False,18.78,18.55,18.149166000000054,2894,11,G,36.0,3f197f93-a1fa-4ab1-ab69-ca5268def52a,18.145,-0.004166000000054737,-1.1187000000000005,True
540,19.273,False,18.78,18.55,18.149166000000054,1840,11,G,36.0,0b5a01d1-3de8-415c-997f-a2916a503eac,18.095000000000002,-0.054166000000051895,-1.1779999999999973,True
541,19.2596,False,18.78,18.55,18.149166000000054,2084,11,G,36.0,e943bfee-4586-4805-912d-5b9bdd5a068a,18.295,0.1458339999999474,-0.9645999999999972,False
542,19.2027,False,18.78,18.55,18.149166000000054,1933,11,G,36.0,b791e80f-67e5-4dc1-a6bd-c4265372db88,18.259999999999998,0.1108339999999437,-0.9427000000000021,False
543,19.1751,False,18.78,18.55,18.149166000000054,2210,11,G,36.0,fb9df42a-ee82-4e01-ac6f-55cb9980570b,18.229999999999997,0.08083399999994256,-0.9451000000000036,True
544,19.1065,False,18.78,18.55,18.149166000000054,2780,11,G,36.0,ac2e24a5-9d04-4ef1-946c-c25aaf2f18f2,18.175,0.0258339999999464,-0.9314999999999998,True
545,19.2433,False,18.78,18.55,18.149166000000054,3014,11,G,36.0,055b372f-f762-47c5-941a-2cb00d7cda04,18.105,-0.044166000000053884,-1.138300000000001,True
546,19.1494,False,18.78,18.55,18.149166000000054,2024,11,G,36.0,beedcfd6-bdf5-4a34-9cda-b1604465b540,18.224999999999998,0.07583399999994356,-0.9244000000000021,True
547,19.118,False,18.78,18.55,18.149166000000054,2684,11,G,36.0,c3233d49-87e1-4d23-9818-f06344cd1db6,18.235,0.08583399999994512,-0.8829999999999991,True
548,19.2507,False,18.78,18.55,18.149166000000054,1963,11,G,36.0,7113d034-a8a8-4232-b77f-3b2eaf846b60,18.265,0.11583399999994626,-0.9856999999999978,False
549,19.1423,False,18.78,18.55,18.149166000000054,2474,11,G,36.0,14da21ff-152c-4abc-bf3d-046d4bf5d75e,18.21,0.06083399999994654,-0.9322999999999979,True
550,19.1574,False,18.78,18.55,18.149166000000054,1870,11,G,36.0,0dc0adb5-4dc2-4005-9f1f-8b8bd1f57abb,18.235,0.08583399999994512,-0.9223999999999997,True
551,19.0729,False,18.78,18.55,18.149166000000054,2054,11,G,36.0,d12551f7-ceb0-4845-880b-f15fca1b61d0,18.305,0.1558339999999454,-0.7679000000000009,False
552,19.137,False,18.78,18.55,18.149166000000054,1900,11,G,36.0,594ead1b-ac0d-4325-a117-65e133bd8532,18.240000000000002,0.09083399999994768,-0.8969999999999985,True
553,19.191,False,18.78,18.55,18.149166000000054,2150,11,G,36.0,ed18384f-332f-48a7-9fd8-3baa0a65961e,18.240000000000002,0.09083399999994768,-0.950999999999997,True
554,19.1791,False,18.78,18.55,18.149166000000054,2174,11,G,36.0,dcc88c0c-dbcd-4535-9f74-fc328ceb81bc,18.224999999999998,0.07583399999994356,-0.9541000000000004,True
555,19.0944,False,18.78,18.55,18.149166000000054,2955,11,G,36.0,1783b20a-f98f-4523-a3f7-0a94ea9849ed,18.09,-0.05916600000005445,-1.0044000000000004,True
556,19.22,False,18.78,18.55,18.149166000000054,1696,11,G,36.0,abe3cd58-9746-4c59-9990-3b9b2b004d74,17.865,-0.2841660000000559,-1.3550000000000004,False
557,19.2666,False,18.78,18.55,18.149166000000054,2504,11,G,36.0,dd5ec703-3175-47ac-94a6-01d45b452ede,18.195000000000004,0.045833999999949526,-1.0715999999999966,True
558,19.0881,False,18.78,18.55,18.149166000000054,2594,11,G,36.0,ba7f6542-3315-40ba-9a79-b5589f9cf315,18.175,0.0258339999999464,-0.9131,True
559,19.127,False,18.78,18.55,18.149166000000054,1810,11,G,36.0,d8ca34de-63e8-418e-822d-8ba8e053f9e8,18.259999999999998,0.1108339999999437,-0.8670000000000009,False
560,19.1961,False,18.78,18.55,18.149166000000054,1994,11,G,36.0,8c00b080-a571-483c-83c5-0e6252bec595,18.285,0.13583399999994583,-0.9111000000000011,False
561,19.2577,False,18.78,18.55,18.149166000000054,2444,11,G,36.0,9e1d80f2-7b5c-4eb7-9bcc-b741480f7c42,18.21,0.06083399999994654,-1.047699999999999,True
562,19.191,False,18.78,18.55,18.149166000000054,2240,11,G,36.0,5db73712-5634-4546-8ca1-665d02710425,18.255,0.1058339999999447,-0.9359999999999999,False
563,19.1631,False,18.78,18.55,18.149166000000054,2864,11,G,36.0,73c14f4e-1bdb-4df7-b14a-62a63dba2bac,18.195000000000004,0.045833999999949526,-0.9680999999999962,True
564,19.1093,False,18.78,18.55,18.149166000000054,2384,11,G,36.0,95998d43-ff5d-41fa-8fcc-19d8b97e6db9,18.224999999999998,0.07583399999994356,-0.8843000000000032,True
565,19.2553,False,18.78,18.55,18.149166000000054,2264,11,G,36.0,08e72ec8-ecf6-4e89-802d-a2ba50f88646,18.215,0.06583399999994555,-1.0402999999999984,True
566,19.1344,False,18.78,18.55,18.149166000000054,2294,11,G,36.0,3f5166b4-f772-4a9c-aac5-1f83e7c73561,18.224999999999998,0.07583399999994356,-0.9094000000000015,True
567,19.2327,False,18.78,18.55,18.149166000000054,2714,11,G,36.0,92886526-f4a1-4912-8c9c-293bd9e39bf2,18.165000000000003,0.01583399999994839,-1.0676999999999985,True
568,19.1991,False,18.78,18.55,18.149166000000054,2624,11,G,36.0,b44eb084-81e8-4309-8a96-e5fadd99f2b0,18.07,-0.07916600000005403,-1.129100000000001,True
569,19.1132,False,18.78,18.55,18.149166000000054,2750,11,G,36.0,2617a858-14bf-4149-9501-e702742f3f73,18.185000000000002,0.03583399999994796,-0.9281999999999968,True
570,19.1594,False,18.78,18.55,18.149166000000054,2114,11,G,36.0,ba1ef204-2427-48d3-a21d-c755a268bd91,18.224999999999998,0.07583399999994356,-0.9344000000000037,True
571,19.0784,False,18.78,18.55,18.149166000000054,1726,11,G,36.0,b1164c60-277b-4574-aa65-aaebf6212ae5,18.235,0.08583399999994512,-0.843399999999999,True
572,19.1748,False,18.78,18.55,18.149166000000054,2804,11,G,36.0,375f8a3d-e6bb-4fa2-ac0d-44f3be40ef03,18.1,-0.04916600000005289,-1.0747999999999998,True
573,19.1111,False,18.78,18.55,18.149166000000054,2834,11,G,36.0,2f6f1fdd-0978-4bdc-88fe-2cfe4e19e3a7,18.07,-0.07916600000005403,-1.0411000000000001,True
574,22.0057,True,22.0,22.0,22.0,1525,10,H,40.5,957874d9-d233-41ed-8b78-2303ddec74c1,22.01,0.010000000000001563,0.004300000000000637,True
575,22.0061,True,22.0,22.0,22.0,1495,10,H,40.5,53af360d-f772-40b1-b4d8-97b66fa7b63f,22.02,0.019999999999999574,0.01389999999999958,True
576,21.9995,True,22.0,22.0,22.0,1555,10,H,40.5,40cfa885-c274-4e20-87a2-cfe1b68ebf78,22.03,0.030000000000001137,0.03049999999999997,True
577,22.0068,True,22.0,22.0,22.0,1465,10,H,40.5,19b8a1cf-5753-4bfb-9d2e-529802e426b0,22.01,0.010000000000001563,0.0032000000000032003,True
578,22.0068,True,22.0,22.0,22.0,1411,10,H,40.5,8a471e6c-1ff4-4f00-8012-beec8c53ae8a,22.01,0.010000000000001563,0.0032000000000032003,True
579,22.01,True,22.0,22.0,22.0,56,7,H,40.5,be48090f-5fe8-439b-b200-3ddb76b44fc2,,,,
580,22.0123,True,22.0,22.0,22.0,316,7,H,40.5,366ace20-ff87-4d6a-ac89-2f73321ee794,,,,
581,22.0106,True,22.0,22.0,22.0,87,7,H,40.5,576692a2-749a-472c-8933-b6513a5e0d25,,,,
582,22.0107,True,22.0,22.0,22.0,3,7,H,40.5,92f1622b-f6c5-4025-ad12-2a5dfb86912e,,,,
583,22.0113,True,22.0,22.0,22.0,278,7,H,40.5,e96864ce-81d4-4f87-8fd3-a1a4c746e8cc,,,,
584,22.0092,True,22.0,22.0,22.0,120,7,H,40.5,52852e1c-7052-410c-9813-08a109900b32,,,,
585,22.0116,True,22.0,22.0,22.0,149,7,H,40.5,d3bcbf36-90e5-40a1-8c06-43d38b8341bb,,,,
586,22.0115,True,22.0,22.0,22.0,213,7,H,40.5,011c2ecc-b97e-4ef0-9067-e189aaaa01d4,,,,
587,22.0127,True,22.0,22.0,22.0,340,7,H,40.5,3f68da66-be30-4c4d-afb2-afc627ab73a4,,,,
588,22.0105,True,22.0,22.0,22.0,27,7,H,40.5,f9838fc0-6c08-4923-bd1d-bcb53fd61e25,,,,
589,22.0121,True,22.0,22.0,22.0,183,7,H,40.5,2f1932fa-df49-4ce5-8afe-1bfbcd94f6ff,,,,
590,22.011,True,22.0,22.0,22.0,246,7,H,40.5,04a25a68-7e23-47b3-bafd-c904b058cee8,,,,
591,22.0125,True,22.0,22.0,22.0,515,8,H,40.5,3552bcab-5183-4c41-8c2b-cfe4f8ee3a88,,,,
592,22.0111,True,22.0,22.0,22.0,689,8,H,40.5,371557a9-e87d-4028-a9cc-f5a329e02586,,,,
593,22.0132,True,22.0,22.0,22.0,486,8,H,40.5,c83b3d54-e4e7-413f-bb18-5838550af94c,,,,
594,22.0125,True,22.0,22.0,22.0,602,8,H,40.5,b34c4b85-c219-4c46-8377-b6490cb0e3cd,,,,
595,22.0091,True,22.0,22.0,22.0,776,8,H,40.5,79311a5e-22b3-4742-8e3e-702a476e6628,,,,
596,22.0134,True,22.0,22.0,22.0,428,8,H,40.5,dc2448d2-87c1-4223-8b7c-7f1b9815ba59,,,,
597,22.0147,True,22.0,22.0,22.0,375,8,H,40.5,148bd2ea-ea87-4311-bb41-ae7167891749,,,,
598,22.0108,True,22.0,22.0,22.0,631,8,H,40.5,73c4cdc5-0f4d-4c8b-9a95-61d6ab63f01d,,,,
599,22.0108,True,22.0,22.0,22.0,660,8,H,40.5,0b029562-e4c4-469b-b370-3bf6712a8c1c,,,,
600,22.0109,True,22.0,22.0,22.0,718,8,H,40.5,e9b72b04-1a8b-4f81-a2dd-2925aecf929c,,,,
601,22.0105,True,22.0,22.0,22.0,810,8,H,40.5,dab0a9f0-9a94-4a2f-ba58-7f727e4c568f,,,,
602,22.0132,True,22.0,22.0,22.0,457,8,H,40.5,d97e484d-2300-4c39-b610-65ebae5ab6fa,,,,
603,22.0109,True,22.0,22.0,22.0,839,8,H,40.5,ed788987-b1a0-4103-b3d0-3765dc64cd03,,,,
604,22.0122,True,22.0,22.0,22.0,573,8,H,40.5,c3ee557f-3c5b-4f69-a005-b8b03be647bc,,,,
605,22.0141,True,22.0,22.0,22.0,399,8,H,40.5,cee4648c-174c-4317-aaf9-3e30920d3e29,,,,
606,22.0128,True,22.0,22.0,22.0,544,8,H,40.5,dd730999-f518-4a3e-8582-31b3e9b19c11,,,,
607,22.0148,True,22.0,22.0,22.0,1038,9,H,40.5,faea7075-cc15-41b9-94c1-bb3a45c4f298,,,,
608,22.0141,True,22.0,22.0,22.0,869,9,H,40.5,18e9c503-9102-4efc-977e-d70a2952d885,,,,
609,22.013,True,22.0,22.0,22.0,1183,9,H,40.5,de6261d9-169a-4b6c-a464-267615e094fc,,,,
610,22.0147,True,22.0,22.0,22.0,1067,9,H,40.5,645b6edf-8c6b-405d-98c0-8225ddc9d3f4,,,,
611,22.0135,True,22.0,22.0,22.0,1270,9,H,40.5,f0cdaabc-61d2-4601-ab2e-759a18abaabc,,,,
612,22.0119,True,22.0,22.0,22.0,1304,9,H,40.5,b60c6ff0-8eb4-436c-be2b-b925dfcce87b,,,,
613,22.0151,True,22.0,22.0,22.0,1009,9,H,40.5,3521d752-1289-43ba-8262-9326fe6a37a1,,,,
614,22.0141,True,22.0,22.0,22.0,1125,9,H,40.5,9d24f4fd-92fe-4003-9b74-5e720fa49e8e,,,,
615,22.0143,True,22.0,22.0,22.0,951,9,H,40.5,ce67919e-e686-4108-93f7-6147f377f3e0,,,,
616,22.0128,True,22.0,22.0,22.0,1154,9,H,40.5,3a1bc776-fa11-419c-bc8e-3dcccd11f654,,,,
617,22.0117,True,22.0,22.0,22.0,1212,9,H,40.5,61ac0d8f-487a-4f82-b93b-915b10160090,,,,
618,22.0124,True,22.0,22.0,22.0,1241,9,H,40.5,0c675113-e896-4652-b2ee-6e6748ff7e2d,,,,
619,22.0163,True,22.0,22.0,22.0,980,9,H,40.5,637aa24b-ce2c-4149-b832-914cefd40e6f,,,,
620,21.9979,True,22.0,22.0,22.0,2414,11,H,40.5,bf8c2a59-2e8d-4068-812d-e33600a9b357,22.04,0.03999999999999915,0.042099999999997806,True
621,22.0011,True,22.0,22.0,22.0,2894,11,H,40.5,3f197f93-a1fa-4ab1-ab69-ca5268def52a,22.02,0.019999999999999574,0.018899999999998585,True
622,21.9943,True,22.0,22.0,22.0,1840,11,H,40.5,0b5a01d1-3de8-415c-997f-a2916a503eac,22.03,0.030000000000001137,0.03570000000000206,True
623,21.9934,True,22.0,22.0,22.0,2084,11,H,40.5,e943bfee-4586-4805-912d-5b9bdd5a068a,22.01,0.010000000000001563,0.016600000000000392,True
624,21.9941,True,22.0,22.0,22.0,1933,11,H,40.5,b791e80f-67e5-4dc1-a6bd-c4265372db88,22.0,0.0,0.00590000000000046,True
625,21.9872,True,22.0,22.0,22.0,2210,11,H,40.5,fb9df42a-ee82-4e01-ac6f-55cb9980570b,21.99,-0.010000000000001563,0.002799999999997027,True
626,21.9977,True,22.0,22.0,22.0,2780,11,H,40.5,ac2e24a5-9d04-4ef1-946c-c25aaf2f18f2,22.01,0.010000000000001563,0.012300000000003308,True
627,21.9917,True,22.0,22.0,22.0,3014,11,H,40.5,055b372f-f762-47c5-941a-2cb00d7cda04,22.03,0.030000000000001137,0.03829999999999956,True
628,21.9923,True,22.0,22.0,22.0,2024,11,H,40.5,beedcfd6-bdf5-4a34-9cda-b1604465b540,21.99,-0.010000000000001563,-0.002300000000001745,True
629,21.9974,True,22.0,22.0,22.0,2684,11,H,40.5,c3233d49-87e1-4d23-9818-f06344cd1db6,22.0,0.0,0.002600000000001046,True
630,21.9945,True,22.0,22.0,22.0,1963,11,H,40.5,7113d034-a8a8-4232-b77f-3b2eaf846b60,22.02,0.019999999999999574,0.025500000000000966,True
631,21.99,True,22.0,22.0,22.0,2474,11,H,40.5,14da21ff-152c-4abc-bf3d-046d4bf5d75e,22.03,0.030000000000001137,0.0400000000000027,True
632,21.9943,True,22.0,22.0,22.0,1870,11,H,40.5,0dc0adb5-4dc2-4005-9f1f-8b8bd1f57abb,22.01,0.010000000000001563,0.01570000000000249,True
633,21.9917,True,22.0,22.0,22.0,2054,11,H,40.5,d12551f7-ceb0-4845-880b-f15fca1b61d0,22.0,0.0,0.00829999999999842,True
634,21.9899,True,22.0,22.0,22.0,1900,11,H,40.5,594ead1b-ac0d-4325-a117-65e133bd8532,22.0,0.0,0.01010000000000133,True
635,21.99,True,22.0,22.0,22.0,2150,11,H,40.5,ed18384f-332f-48a7-9fd8-3baa0a65961e,22.0,0.0,0.010000000000001563,True
636,21.9854,True,22.0,22.0,22.0,2174,11,H,40.5,dcc88c0c-dbcd-4535-9f74-fc328ceb81bc,21.99,-0.010000000000001563,0.0045999999999999375,True
637,21.9966,True,22.0,22.0,22.0,2955,11,H,40.5,1783b20a-f98f-4523-a3f7-0a94ea9849ed,22.08,0.0799999999999983,0.08339999999999748,True
638,21.9935,True,22.0,22.0,22.0,1696,11,H,40.5,abe3cd58-9746-4c59-9990-3b9b2b004d74,22.04,0.03999999999999915,0.04649999999999821,True
639,21.9943,True,22.0,22.0,22.0,2504,11,H,40.5,dd5ec703-3175-47ac-94a6-01d45b452ede,22.01,0.010000000000001563,0.01570000000000249,True
640,21.99,True,22.0,22.0,22.0,2594,11,H,40.5,ba7f6542-3315-40ba-9a79-b5589f9cf315,22.04,0.03999999999999915,0.05000000000000071,True
641,21.995,True,22.0,22.0,22.0,1810,11,H,40.5,d8ca34de-63e8-418e-822d-8ba8e053f9e8,22.01,0.010000000000001563,0.015000000000000568,True
642,21.9893,True,22.0,22.0,22.0,1994,11,H,40.5,8c00b080-a571-483c-83c5-0e6252bec595,22.03,0.030000000000001137,0.04070000000000107,True
643,21.9942,True,22.0,22.0,22.0,2444,11,H,40.5,9e1d80f2-7b5c-4eb7-9bcc-b741480f7c42,22.01,0.010000000000001563,0.015800000000002257,True
644,21.9879,True,22.0,22.0,22.0,2240,11,H,40.5,5db73712-5634-4546-8ca1-665d02710425,22.01,0.010000000000001563,0.022100000000001785,True
645,21.9925,True,22.0,22.0,22.0,2864,11,H,40.5,73c14f4e-1bdb-4df7-b14a-62a63dba2bac,22.02,0.019999999999999574,0.027499999999999858,True
646,21.9972,True,22.0,22.0,22.0,2384,11,H,40.5,95998d43-ff5d-41fa-8fcc-19d8b97e6db9,22.02,0.019999999999999574,0.022800000000000153,True
647,21.9874,True,22.0,22.0,22.0,2264,11,H,40.5,08e72ec8-ecf6-4e89-802d-a2ba50f88646,22.01,0.010000000000001563,0.02260000000000062,True
648,21.9866,True,22.0,22.0,22.0,2294,11,H,40.5,3f5166b4-f772-4a9c-aac5-1f83e7c73561,22.01,0.010000000000001563,0.023400000000002308,True
649,21.9971,True,22.0,22.0,22.0,2714,11,H,40.5,92886526-f4a1-4912-8c9c-293bd9e39bf2,22.0,0.0,0.0029000000000003467,True
650,21.9968,True,22.0,22.0,22.0,2624,11,H,40.5,b44eb084-81e8-4309-8a96-e5fadd99f2b0,22.04,0.03999999999999915,0.043199999999998795,True
651,21.9891,True,22.0,22.0,22.0,2750,11,H,40.5,2617a858-14bf-4149-9501-e702742f3f73,22.0,0.0,0.010899999999999466,True
652,21.9856,True,22.0,22.0,22.0,2114,11,H,40.5,ba1ef204-2427-48d3-a21d-c755a268bd91,22.0,0.0,0.014399999999998414,True
653,21.9931,True,22.0,22.0,22.0,1726,11,H,40.5,b1164c60-277b-4574-aa65-aaebf6212ae5,22.0,0.0,0.0069000000000016826,True
654,22.0005,True,22.0,22.0,22.0,2804,11,H,40.5,375f8a3d-e6bb-4fa2-ac0d-44f3be40ef03,22.04,0.03999999999999915,0.03950000000000031,True
655,21.9935,True,22.0,22.0,22.0,2834,11,H,40.5,2f6f1fdd-0978-4bdc-88fe-2cfe4e19e3a7,22.02,0.019999999999999574,0.026499999999998636,True
