,feature,instance,position,actual_value,target_log,tolerance,result,batch,name,microvu_name,location,target_drawing,target_interpolation
0,A,be48090f-5fe8-439b-b200-3ddb76b44fc2,Upright,22.0206,22.0,0.1000,True,7,95,56,2,22.0,22.0
1,B,be48090f-5fe8-439b-b200-3ddb76b44fc2,Upright,18.9799,19.0,0.1000,True,7,95,56,10,19.01,18.975373890991136
2,C,be48090f-5fe8-439b-b200-3ddb76b44fc2,Upright,17.9715,18.0,0.1000,True,7,95,56,15,18.0,18.000000930247417
3,D,be48090f-5fe8-439b-b200-3ddb76b44fc2,Upright,19.4156,19.4,0.1000,True,7,95,56,21,19.46,19.419924412456062
4,E,be48090f-5fe8-439b-b200-3ddb76b44fc2,Upright,21.9983,22.0,0.1000,True,7,95,56,27,22.0,22.0
5,F,be48090f-5fe8-439b-b200-3ddb76b44fc2,Upright,19.639,19.6,0.1000,True,7,95,56,33,19.71,19.310664499999874
6,G,be48090f-5fe8-439b-b200-3ddb76b44fc2,Upright,18.777,18.78,0.1000,True,7,95,56,36,18.55,18.149166000000054
7,H,be48090f-5fe8-439b-b200-3ddb76b44fc2,Upright,22.01,22.0,0.1000,True,7,95,56,40,22.0,22.0
